<?xml version="1.0" encoding="utf-8"?>
<!-- Generator: Adobe Illustrator 21.0.0, SVG Export Plug-In . SVG Version: 6.00 Build 0)  -->
<svg version="1.1" id="IL" xmlns="http://www.w3.org/2000/svg" xmlns:xlink="http://www.w3.org/1999/xlink" x="0px" y="0px"
	 viewBox="0 0 72.7 72.5" style="enable-background:new 0 0 72.7 72.5;" xml:space="preserve">
<style type="text/css">
	.st0{fill:#5D5D5D;}
	.st1{font-family:'MuseoSans-700';}
	.st2{font-size:10px;}
	.st3{fill:#80BD41;}
</style>
<g>
	<text transform="matrix(1 0 0 1 0 70.3764)" class="st0 st1 st2">Hamptonburgh</text>
</g>
<g>
	<path class="st3" d="M36.5,0.2c-0.3-0.3-0.8-0.3-1.2,0L10.4,24.5c-0.2,0.2-0.3,0.4-0.3,0.6v25.5c0,0.2,0.1,0.4,0.2,0.6
		c0.2,0.2,0.4,0.2,0.6,0.2h22.6l0,0l0,0h27.1c0.2,0,0.4-0.1,0.6-0.2s0.2-0.4,0.2-0.6V25.1c0-0.2-0.1-0.4-0.3-0.6L36.5,0.2z
		 M11.9,25.4L36,1.9l24.1,23.5v24.3H34.5v-6.6c0-0.7,0.1-1.4,0.3-2c0.6,0.4,1.2,0.7,1.7,0.9c1.3,0.5,2.4,0.8,3.5,0.8
		c0.9,0,1.7-0.2,2.5-0.5c1.3-0.6,2.4-1.5,3.3-2.8c1.3-1.8,2.2-4.2,2.8-6.7c0.6-2.5,0.8-5.1,0.8-7.4c0-0.2,0-0.5,0-0.7l0,0l0,0v-0.1
		v-0.1v-0.1v-0.1v-0.1v-0.1L49.3,24l-0.1-0.1l-0.1-0.1L49,23.7h-0.1h-0.1h-0.1h-0.1l0,0l0,0c-0.7-0.1-1.5-0.2-2.4-0.2
		c-2.8,0-6.3,0.8-9.2,2.9c-1.4,1.1-2.7,2.5-3.6,4.4c-0.3,0.6-0.6,1.3-0.8,2l-0.1-0.1c-1-2-2.6-3.3-4.3-4.1c-1.7-0.8-3.5-1.1-5.1-1.1
		c-0.7,0-1.4,0.1-2,0.2l0,0l0,0H21h-0.1h-0.1h-0.1h-0.1h-0.1l-0.1,0.1v0.1V28v0.1v0.1v0.1v0.1l0,0c0,0.4,0,0.7,0,1.1
		c0,2.6,0.4,5.6,1.4,8c0.5,1.2,1.2,2.3,2.1,3.1c0.9,0.8,2.1,1.3,3.4,1.3c0.9,0,1.8-0.2,2.8-0.6c0.8-0.4,1.7-0.9,2.6-1.5
		c0.2,0.1,0.3,0.2,0.5,0.3C32.8,41,32.6,42,32.6,43v6.7h-21V25.4H11.9z M41,32.8c-0.4-0.3-0.9-0.2-1.2,0.1c-0.6,0.8-1.1,1.4-1.6,2
		s-1,1-1.8,1.5c-0.9,0.6-1.6,1.3-2.2,2.1c-0.1-0.1-0.2-0.2-0.3-0.2c0-0.2,0-0.4,0-0.7c0-2.5,0.5-4.5,1.3-6.1c1.2-2.4,3.1-4,5.1-5
		c2.1-1,4.3-1.4,6.2-1.4c0.5,0,1,0,1.4,0.1l0,0c0,3.4-0.6,7.4-1.9,10.6c-0.6,1.6-1.5,2.9-2.5,3.8c-0.5,0.4-1,0.8-1.6,1
		S40.7,41,40,41c-0.8,0-1.8-0.2-2.9-0.7c-0.5-0.2-1.1-0.5-1.6-0.9c0.4-0.6,1-1.2,1.7-1.7c0.9-0.6,1.6-1.2,2.1-1.8
		c0.6-0.6,1.1-1.3,1.7-2.1C41.4,33.7,41.3,33.1,41,32.8z M22.4,29.2c0.3,0,0.7-0.1,1.1-0.1c1.8,0,4,0.5,5.8,1.8
		c0.9,0.6,1.6,1.5,2.1,2.6s0.9,2.4,0.9,4.2c0,0.2,0,0.4,0,0.7c-0.9,0.7-1.7,1.2-2.5,1.5c-0.8,0.4-1.5,0.5-2.1,0.5
		c-0.9,0-1.6-0.3-2.3-0.9c-1-0.9-1.8-2.4-2.2-4.2c-0.5-1.8-0.7-3.8-0.7-5.6C22.4,29.4,22.4,29.3,22.4,29.2z"/>
</g>
</svg>
