<?xml version="1.0" encoding="utf-8"?>
<!-- Generator: Adobe Illustrator 21.0.0, SVG Export Plug-In . SVG Version: 6.00 Build 0)  -->
<svg version="1.1" xmlns="http://www.w3.org/2000/svg" xmlns:xlink="http://www.w3.org/1999/xlink" x="0px" y="0px"
	 viewBox="0 0 100 100" style="enable-background:new 0 0 100 100;" xml:space="preserve">
<style type="text/css">
	.st0{fill:#FFFFFF;}
	.st1{fill:none;stroke:#FFFFFF;stroke-miterlimit:10;}
</style>
<g id="Layer_1">
</g>
<g id="Layer_2">
	<g>
		<g>
			<path class="st0" d="M33.1,79.3H20.7V39.6h12.4V79.3z M26.9,34.1c-4,0-7.2-3.2-7.2-7.2c0-4,3.2-7.2,7.2-7.2c4,0,7.2,3.2,7.2,7.2
				C34,30.9,30.8,34.1,26.9,34.1z M79.3,79.3H67V60c0-4.6-0.1-10.5-6.4-10.5c-6.4,0-7.4,5-7.4,10.2v19.7H40.8V39.6h11.8V45h0.2
				c1.6-3.1,5.7-6.4,11.7-6.4c12.5,0,14.8,8.2,14.8,18.9V79.3z"/>
		</g>
		<rect x="8.3" y="8.3" class="st1" width="83.3" height="83.3"/>
	</g>
</g>
</svg>
