<?xml version="1.0" encoding="utf-8"?>
<!-- Generator: Adobe Illustrator 21.0.0, SVG Export Plug-In . SVG Version: 6.00 Build 0)  -->
<svg version="1.1" id="IL" xmlns="http://www.w3.org/2000/svg" xmlns:xlink="http://www.w3.org/1999/xlink" x="0px" y="0px"
	 viewBox="0 0 174.1 309.3" style="enable-background:new 0 0 174.1 309.3;" xml:space="preserve">
<style type="text/css">
	.st0{fill:#C1C1C1;stroke:#FFFFFF;stroke-width:0.5;stroke-linecap:round;stroke-linejoin:round;}
	.st1{fill:#4FAA99;stroke:#FFFFFF;stroke-width:0.5;stroke-miterlimit:10;}
	.st2{fill:#FFFFFF;}
	.st3{fill:#80BD41;stroke:#FFFFFF;stroke-width:0.5;stroke-miterlimit:10;}
</style>
<g>
	<polygon class="st0" points="50,26.6 48.1,25.9 46.5,24.1 46.1,22.9 45.6,18.5 45.1,17.4 43,15.8 40,14 38.2,11.8 36.5,10.9 
		36.2,9.8 36.9,9 46,9.1 66.6,9.3 66.8,26.6 	"/>
	<polygon class="st0" points="45.2,75 18.6,74.9 19.5,71.2 20.6,69.9 21.8,69.5 23.9,70.1 28.2,68.8 31,68.5 34,68.5 36,67.8 
		38.5,65.1 41,64.2 44.5,64.1 45.4,63.3 45.9,61.9 49,60.8 49.4,59.9 49.2,57.4 49.9,53.3 50.8,51.4 52.9,50 53.6,54.3 54.5,55.6 
		55.9,56.4 56.9,58 57.1,59.5 56.1,60.9 55.8,62.3 55,63.2 52.9,64.3 48.1,64.8 47.4,66.9 45.4,67.9 	"/>
	<polygon class="st0" points="136.6,82.1 136.1,67.7 135.9,53.1 145.6,52.9 145.6,54.8 145.6,57.6 150.6,57.5 150.6,62 155.4,61.9 
		155.6,67.5 166.5,67.4 166.5,76.7 146.1,77.1 146.1,81.8 	"/>
	<polygon class="st0" points="121.6,53.4 135.9,53.1 136.1,67.7 121.8,68.1 121.5,58.1 121.4,53.6 	"/>
	<polygon class="st0" points="98.1,87.4 98.1,75.9 98.1,60.7 98.1,58.5 107.6,58.4 121.5,58.1 121.8,68.1 122.1,87.1 107.9,87.3 
		107.9,97.3 102.9,97.4 102.8,87.5 	"/>
	<polygon class="st0" points="69.2,80.4 69,61 78.6,60.8 98.1,60.7 98.1,75.9 94,75.5 90.9,77.1 90.1,80.4 85.6,80.5 85.6,85 
		78.2,85.1 78.2,80.3 	"/>
	<polygon class="st0" points="45.1,84.8 45.2,75 45.4,67.9 47.4,66.9 48.1,64.8 52.9,64.3 55,63.2 55.8,62.3 56.1,60.9 69,61 
		69.2,80.4 68.8,80.4 68.8,85.1 63.9,85.1 	"/>
	<polygon class="st0" points="136.2,87 122.1,87.1 121.8,68.1 136.1,67.7 136.6,82.1 136.6,86.9 	"/>
	<polygon class="st0" points="23.6,89.5 23.6,87.7 22.1,85.4 21,84.3 19.5,83.7 17.6,80.6 17.5,78.6 18.6,74.9 45.2,75 45.1,84.8 
		45,89.8 30.6,89.6 	"/>
	<polygon class="st0" points="85.6,85 85.6,80.5 90.1,80.4 90.9,77.1 94,75.5 98.1,75.9 98.1,87.4 90.6,87.7 91.5,85 	"/>
	<polygon class="st0" points="141.5,93.2 136.5,93.3 136.2,87 136.6,86.9 136.6,82.1 146.1,81.8 146.1,77.1 166.5,76.7 166.5,83.8 
		166.5,92.9 	"/>
	<polygon class="st0" points="78.1,94.7 64,94.6 63.9,85.1 68.8,85.1 68.8,80.4 69.2,80.4 78.2,80.3 78.2,85.1 	"/>
	<polygon class="st0" points="63.8,108.9 44.6,109.4 45,89.8 45.1,84.8 63.9,85.1 64,94.6 	"/>
	<polygon class="st0" points="98.1,87.4 102.8,87.5 102.9,97.4 85.2,97.7 85.9,96.9 86.2,94.8 78.1,94.7 78.2,85.1 85.6,85 91.5,85 
		90.6,87.7 	"/>
	<polygon class="st0" points="107.9,97.3 107.9,87.3 122.1,87.1 136.2,87 136.5,93.3 137,114.2 127.6,114.4 122.9,114.4 122.6,107 
		108.1,107 	"/>
	<polygon class="st0" points="12.8,113.1 15,112.4 16.4,111 16.8,109.7 17.9,106.6 18.1,102.6 19.8,100.1 22.5,97.6 23.4,96.2 
		23.6,89.5 30.6,89.6 30.1,113.4 25.4,113.3 	"/>
	<polygon class="st0" points="44.6,113.8 30.1,113.4 30.6,89.6 45,89.8 44.6,109.4 	"/>
	<polygon class="st0" points="149.5,121.8 142.1,121.4 141.5,93.2 166.5,92.9 166.5,107.5 166.2,121.3 	"/>
	<polygon class="st0" points="149.6,126.3 127.6,126.4 127.6,114.4 137,114.2 136.5,93.3 141.5,93.2 142.1,121.4 149.5,121.8 	"/>
	<polygon class="st0" points="63.8,108.9 64,94.6 78.1,94.7 86.2,94.8 85.9,96.9 85.2,97.7 84,100.5 81.9,103.5 81.6,104.9 
		82.1,107.4 82.4,108.2 82.1,109.3 81.2,110.5 79.2,111.7 79.4,112.9 77.9,114.9 77.8,116.5 77.1,117.3 71.5,118.2 68.6,120.2 
		69,115.9 68.4,115.9 68.6,113.5 63.9,113.5 	"/>
	<polygon class="st0" points="82.1,107.4 81.6,104.9 81.9,103.5 84,100.5 85.2,97.7 102.9,97.4 107.9,97.3 108.1,107 105.8,107 
		105.6,111.9 103.5,112 103.4,113.9 100.9,113.9 100.9,114.7 99.5,114.6 99.5,115.4 93.8,115.5 93.6,114.5 91.4,114.5 91.2,107.5 	
		"/>
	<polygon class="st0" points="127.6,132.5 123,132.5 98.8,132.7 94.1,132.7 94,130.3 93.8,115.5 99.5,115.4 99.5,114.6 100.9,114.7 
		100.9,113.9 103.4,113.9 103.5,112 105.6,111.9 105.8,107 108.1,107 122.6,107 122.9,114.4 127.6,114.4 127.6,126.4 	"/>
	<polygon class="st0" points="94,130.3 79.8,130.6 75.2,130.6 75.1,124.3 66.4,124.1 67.4,123.1 68.1,120.9 68.6,120.2 71.5,118.2 
		77.1,117.3 77.8,116.5 77.9,114.9 79.4,112.9 79.2,111.7 81.2,110.5 82.1,109.3 82.4,108.2 82.1,107.4 91.2,107.5 91.4,114.5 
		93.6,114.5 93.8,115.5 	"/>
	<polygon class="st0" points="44.5,133.2 44.6,113.8 44.6,109.4 63.8,108.9 63.9,113.5 68.6,113.5 68.4,115.9 69,115.9 68.6,120.2 
		68.1,120.9 67.4,123.1 66.4,124.1 64.9,125 63.6,126.5 61.6,127.6 60.1,132.1 58.6,134.1 58.1,135.5 56.5,136.4 54.9,138 
		44.5,137.7 	"/>
	<polygon class="st0" points="1,134.6 1.5,131.4 3.1,128 4.2,127.2 5.6,126.9 6.2,126.3 5.6,123.9 6.1,120.8 5.9,119.4 4.6,118.3 
		4.6,117 6.1,115.3 10.9,113.3 12.8,113.1 25.4,113.3 25.1,132.8 25.1,137.6 0.6,137.4 	"/>
	<polygon class="st0" points="44.5,133.2 25.1,132.8 25.4,113.3 30.1,113.4 44.6,113.8 	"/>
	<polygon class="st0" points="166.4,139.2 166.4,154.4 164.5,154.4 165.1,155.1 162.8,155.1 162.6,154.4 149.4,154.6 149.1,135.6 
		149.6,135.6 149.6,126.3 149.5,121.8 166.2,121.3 166.4,121.9 	"/>
	<polygon class="st0" points="48.8,141.3 49.2,140.4 50.2,140.4 51.5,139.7 54.4,139.5 54.9,138.9 54.9,138 56.5,136.4 58.1,135.5 
		58.6,134.1 60.1,132.1 61.6,127.6 63.6,126.5 64.9,125 66.4,124.1 75.1,124.3 75.2,130.6 79.8,130.6 80,140.9 77.8,139.3 
		76.1,140.4 75.2,140.4 73.6,141.1 72.8,140.9 71.8,141.3 70.6,141.4 70,140.6 69.1,141.2 68.6,140.4 68,141 66.6,140.6 65,140.7 
		63.5,142.1 60.9,142.7 59.8,143.7 58.1,144.5 55.6,144.5 55.1,144.9 53.6,145.2 52.8,144.5 52.1,144.9 51.5,144.7 50.4,142.3 	"/>
	<polygon class="st0" points="127.5,154.8 127.6,132.5 127.6,126.4 149.6,126.3 149.6,135.6 149.1,135.6 149.4,154.6 	"/>
	<polygon class="st0" points="80.8,149.5 81,143.1 80.1,143.1 80,140.9 79.8,130.6 94,130.3 94.1,132.7 98.8,132.7 98.9,145.3 
		98.9,152.7 95.9,152.7 88.1,152.8 88.1,152 84.6,151.9 84.6,149.4 	"/>
	<polygon class="st0" points="115.5,145.1 115.5,142.7 118.1,142.7 118.1,140.5 123,132.5 127.6,132.5 127.5,154.8 127.4,159.8 
		127.1,159.7 115.6,159.5 	"/>
	<polygon class="st0" points="98.9,145.3 98.8,132.7 123,132.5 118.1,140.5 118.1,142.7 115.5,142.7 115.5,145.1 	"/>
	<polygon class="st0" points="25,142.4 25.1,137.6 25.1,132.8 44.5,133.2 44.5,137.7 54.9,138 54.9,138.9 54.4,139.5 51.5,139.7 
		50.2,140.4 49.2,140.4 48.8,141.3 47.2,141.8 46.6,144 45.6,144.5 45.1,147.2 42,148.9 38.2,149.2 38.1,148.1 37.6,147.5 
		38.1,147.2 37.9,146.8 36.6,146.7 35.1,145.8 35.1,144.2 33.8,143.9 34.4,142.5 	"/>
	<polygon class="st0" points="25.1,156.6 25,161 6.1,161.3 5.9,159 3.1,155.8 3,154.6 3.6,153.7 3.8,152.6 3.1,151.2 1.5,148 
		0.8,144.7 0.2,141 0.6,137.4 25.1,137.6 25,142.4 	"/>
	<polygon class="st0" points="63.6,153.4 63.5,142.1 65,140.7 66.6,140.6 68,141 68.6,140.4 69.1,141.2 70,140.6 70.6,141.4 
		71.8,141.3 72.8,140.9 73.6,141.1 75.2,140.4 76.1,140.4 77.8,139.3 80,140.9 80.1,143.1 81,143.1 80.8,149.5 75.8,149.6 
		75.6,152.7 73.1,152.7 72.9,153.3 	"/>
	<polygon class="st0" points="39.1,154.8 40.9,152.8 42,148.9 45.1,147.2 45.6,144.5 46.6,144 47.2,141.8 48.8,141.3 50.4,142.3 
		51.5,144.7 52.1,144.9 52.8,144.5 53.6,145.2 55.1,144.9 55.6,144.5 58.1,144.5 59.8,143.7 60.9,142.7 63.5,142.1 63.6,153.4 
		63.6,155 	"/>
	<polygon class="st0" points="39.5,156.7 26.9,156.9 25.1,156.6 25,142.4 34.4,142.5 33.8,143.9 35.1,144.2 35.1,145.8 36.6,146.7 
		37.9,146.8 38.1,147.2 37.6,147.5 38.1,148.1 38.2,149.2 42,148.9 40.9,152.8 39.1,154.8 	"/>
	<polygon class="st0" points="103.9,167 99.1,167 99,159.1 97.2,158.3 95.9,158.6 95.9,152.7 98.9,152.7 98.9,145.3 115.5,145.1 
		115.6,159.5 115.1,159.5 115.1,162.5 113,162.6 113,167 	"/>
	<polygon class="st0" points="75.9,173.9 66.5,174 66.5,172.3 64.1,164.3 63.6,155 63.6,153.4 72.9,153.3 73.1,152.7 75.6,152.7 
		75.8,149.6 80.8,149.5 84.6,149.4 84.6,151.9 88.1,152 88.1,152.8 95.9,152.7 95.9,158.6 94.4,158.1 93.4,159.5 91.4,161.1 
		88.1,162.3 87.1,162 87,165.4 84.8,165.5 84.8,167.5 82.6,167.6 82.6,173.9 	"/>
	<polygon class="st0" points="148.4,176.3 148.2,165.2 148.1,159.4 149.4,159.3 149.4,154.6 162.6,154.4 162.8,155.1 165.1,155.1 
		164.5,154.4 166.4,154.4 166.4,169.5 166.2,176.7 160,176.6 160,176.1 	"/>
	<polygon class="st0" points="148.2,165.2 144.5,165.4 144.6,166.9 127.1,167.3 127.1,159.7 127.4,159.8 127.5,154.8 149.4,154.6 
		149.4,159.3 148.1,159.4 	"/>
	<polygon class="st0" points="57.1,174.1 50.9,174.1 51,167.9 49.2,167.9 49.2,166.4 47.8,166.4 47.9,161.6 43.2,161.6 43.4,159.6 
		38.1,159.5 39,158.6 39.5,156.7 39.1,154.8 63.6,155 64.1,164.3 66.5,172.3 66.5,174 	"/>
	<polygon class="st0" points="13.2,170 8.6,165.4 6.5,163.3 6.1,161.3 25,161 25.1,156.6 26.9,156.9 39.5,156.7 39,158.6 
		38.1,159.5 36.6,164.4 36.8,165.7 38,167.7 39.1,171.9 39,174.1 37.6,179.8 37.8,181.2 24,180.8 20.2,178.5 19.1,176.9 17.9,173.9 
		15.2,172.6 	"/>
	<polygon class="st0" points="82.6,173.9 82.6,167.6 84.8,167.5 84.8,165.5 87,165.4 87.1,162 88.1,162.3 91.4,161.1 93.4,159.5 
		94.4,158.1 95.9,158.6 97.2,158.3 99,159.1 99.1,167 103.9,167 103.9,183.6 99.5,183.6 82.8,183.6 	"/>
	<polygon class="st0" points="127.2,178.1 122.4,178.1 122.4,176.7 121.8,176.6 121.8,175.9 120.9,175.9 120.9,175.1 120,175.1 
		119.9,174.1 117,174 116.9,171 113.1,170.9 113,167 113,162.6 115.1,162.5 115.1,159.5 115.6,159.5 127.1,159.7 127.1,167.3 	"/>
	<polygon class="st0" points="39,174.1 39.1,171.9 38,167.7 36.8,165.7 36.6,164.4 38.1,159.5 43.4,159.6 43.2,161.6 47.9,161.6 
		47.8,166.4 49.2,166.4 49.2,167.9 51,167.9 50.9,174.1 	"/>
	<polygon class="st0" points="146.4,182 127.2,182.1 127.2,178.1 127.1,167.3 144.6,166.9 144.5,165.4 148.2,165.2 148.4,176.3 
		146.4,176.2 	"/>
	<polygon class="st0" points="113.1,190.9 99.2,190.7 99.5,183.6 103.9,183.6 103.9,167 113,167 113.1,170.9 116.9,171 117,174 
		119.9,174.1 120,175.1 120.9,175.1 120.9,175.9 121.8,175.9 121.8,176.6 122.4,176.7 122.4,178.1 127.2,178.1 127.2,182.1 
		127.2,190.9 	"/>
	<polygon class="st0" points="76,202.6 75.6,183.3 75.9,183.3 75.9,173.9 82.6,173.9 82.8,183.6 99.5,183.6 99.2,190.7 94.6,190.8 
		94.5,201 80.5,200.9 80.5,202.5 78.2,202.6 	"/>
	<polygon class="st0" points="57.1,202.5 57.1,188.5 57.1,174.1 66.5,174 75.9,173.9 75.9,183.3 75.6,183.3 76,202.6 	"/>
	<polygon class="st0" points="57.1,188.5 55,188.8 55,190.3 50.2,190.3 50.2,192.9 43,193 42.4,193.7 41.9,192.4 39.8,192.4 
		39.1,192.8 39.1,193.7 38.1,196.1 37.9,194 38.5,190.9 37.5,182.8 37.8,181.2 37.6,179.8 39,174.1 50.9,174.1 57.1,174.1 	"/>
	<polygon class="st0" points="146.5,192.8 146.4,182 146.4,176.2 148.4,176.3 160,176.1 160,176.6 166.2,176.7 166.1,183.5 
		163.8,184.2 162.6,185.8 163.1,186.4 163,187.2 163.4,188.5 164.2,189 164.1,191.2 163.9,191.7 163.4,191.8 161.8,193.3 
		160.9,193.3 160.9,192.8 148.8,192.8 	"/>
	<polygon class="st0" points="38.1,196.1 38,196.6 39.5,200.7 39.5,202.1 40.6,204 41.2,204.7 43.1,204.2 43.9,204.6 41.4,208.2 
		39.6,209.3 37.4,208.8 35.6,205.9 34.1,200.4 34,199.3 34.6,197.4 33.6,194.6 33.6,191.9 33,190.3 32.6,189.1 31,186.4 28,183.5 
		24,180.8 37.8,181.2 37.5,182.8 38.5,190.9 37.9,194 	"/>
	<polygon class="st0" points="146.5,192.8 131.8,193 127.4,193 127.2,190.9 127.2,182.1 146.4,182 	"/>
	<polygon class="st0" points="57.1,202.5 51.9,202.5 51.9,206.4 50.1,206.4 46.2,204.4 43.9,204.6 43.1,204.2 41.2,204.7 40.6,204 
		39.5,202.1 39.5,200.7 38,196.6 38.1,196.1 39.1,193.7 39.1,192.8 39.8,192.4 41.9,192.4 42.4,193.7 43,193 50.2,192.9 50.2,190.3 
		55,190.3 55,188.8 57.1,188.5 	"/>
	<polygon class="st0" points="94.5,201 94.6,190.8 99.2,190.7 113.1,190.9 113.1,206.8 117.6,206.8 117.6,211.5 99.2,211.7 
		99.1,216.3 94.2,216.2 94.1,202 94.6,201.9 	"/>
	<polygon class="st0" points="131.8,206.9 117.6,206.8 113.1,206.8 113.1,190.9 127.2,190.9 127.4,193 131.8,193 	"/>
	<polygon class="st0" points="148.9,210.1 148.8,192.8 160.9,192.8 160.9,193.3 161.8,193.3 160.8,194.5 161.1,195.4 161.1,196.3 
		162.4,196.8 162.4,197.6 163.1,197.8 164.2,199 164.4,202.6 164,202.7 165.9,203.6 166.5,204.3 166.6,206 166.1,207.5 165.4,209.4 
		165.8,210 150.4,210.1 	"/>
	<polygon class="st0" points="148.9,210.1 136.1,210.2 131.6,210 131.8,206.9 131.8,193 146.5,192.8 148.8,192.8 	"/>
	<polygon class="st0" points="80,216.3 79.9,209.3 78.4,209.3 78.2,202.6 80.5,202.5 80.5,200.9 94.5,201 94.6,201.9 94.1,202 
		94.2,216.2 	"/>
	<polygon class="st0" points="58.5,213.1 58.8,211.5 58,210.3 53.4,207 51.9,206.4 51.9,202.5 57.1,202.5 76,202.6 78.2,202.6 
		78.4,209.3 79.9,209.3 80,216.3 80,220.6 75.5,220.7 55.9,220.7 55.1,218.4 55.2,217.2 56.6,214.6 57.9,213.9 	"/>
	<polygon class="st0" points="117.6,223.2 117.6,211.5 117.6,206.8 131.8,206.9 131.6,210 136.1,210.2 136.1,216.2 134.9,216.4 
		135.4,220.5 134.6,221.5 135.1,222.7 135.9,223.4 	"/>
	<polygon class="st0" points="165.8,210 167.5,213.4 167.1,214.4 167.5,214.7 167.5,216.5 166,219.2 164.1,220 162.6,221.5 
		162.5,222.6 162.9,223.8 162,224.2 161.5,225.2 150.5,225.2 150.4,210.1 	"/>
	<polygon class="st0" points="148.6,225.1 140.8,225.1 140.8,223.6 135.9,223.4 135.1,222.7 134.6,221.5 135.4,220.5 134.9,216.4 
		136.1,216.2 136.1,210.2 148.9,210.1 150.4,210.1 150.5,225.2 	"/>
	<polygon class="st0" points="99.1,229.1 99.1,216.3 99.2,211.7 117.6,211.5 117.6,223.2 117.6,230.5 99.1,230.5 	"/>
	<polygon class="st0" points="99.1,216.3 99.1,229.1 94.1,228.7 92.8,229 90.4,228.5 88.6,229.8 87.2,229.5 86.1,229.9 85.1,230.9 
		83.4,230.2 82.6,230.6 81.4,230.1 79.4,230.9 79.1,231.8 78.2,232.3 77.5,232.2 77.2,233 75.6,233.5 75.5,220.7 80,220.6 80,216.3 
		94.2,216.2 	"/>
	<polygon class="st0" points="67.5,243.9 66.4,241 66.6,240.6 67.2,240.9 67,239.3 62.1,239.2 62.1,238.2 57.5,234 57.4,233 
		52.4,228.1 52.6,227.4 53.5,225.8 55.9,223.3 55.9,220.7 75.5,220.7 75.6,233.5 75.5,244.1 	"/>
	<polygon class="st0" points="140.6,241.9 131.4,242.1 117.5,241.9 117.6,230.5 117.6,223.2 135.9,223.4 140.8,223.6 140.8,225.1 	
		"/>
	<polygon class="st0" points="140.6,241.9 140.8,225.1 148.6,225.1 149.1,227.1 148.5,229.3 149,231.7 148.6,232.5 149,233.2 
		147.9,234.4 147.9,235.6 148.5,237.1 148.6,240 147.5,241.9 	"/>
	<polygon class="st0" points="147.5,241.9 148.6,240 148.5,237.1 147.9,235.6 147.9,234.4 149,233.2 148.6,232.5 149,231.7 
		148.5,229.3 149.1,227.1 148.6,225.1 150.5,225.2 161.5,225.2 160.6,226.6 161.5,228.3 161.5,229.1 160.4,228.9 159.8,230.1 
		157.1,230.9 157.1,231.4 157.9,232 157.5,233.5 156,235.6 153.9,237 153.2,240.5 152.6,240.6 152.2,238.9 151.9,239 151.6,239.8 
		150.6,240.8 150.6,239.7 150.1,239.5 147.8,242.9 	"/>
	<polygon class="st0" points="67.5,243.9 61.9,243.9 61.9,248.5 54.9,251 52.9,249.2 51.4,246.9 49.5,245.7 48.2,243.3 48.1,238.5 
		48.6,236.3 49.4,235 50.9,233 52.4,228.1 57.4,233 57.5,234 62.1,238.2 62.1,239.2 67,239.3 67.2,240.9 66.6,240.6 66.4,241 	"/>
	<polygon class="st0" points="80.2,244.2 75.5,244.1 75.6,233.5 77.2,233 77.5,232.2 78.2,232.3 79.1,231.8 79.4,230.9 81.4,230.1 
		82.6,230.6 83.4,230.2 85.1,230.9 86.1,229.9 87.2,229.5 88.6,229.8 90.4,228.5 92.8,229 94.1,228.7 99.1,229.1 99.1,230.5 
		99,244.4 	"/>
	<polygon class="st0" points="117.4,248.9 99.6,248.9 98.9,248.9 99,244.4 99.1,230.5 117.6,230.5 117.5,241.9 	"/>
	<polygon class="st0" points="131.2,260.3 131.4,242.1 140.6,241.9 147.5,241.9 147.8,242.9 147.6,243.3 147.9,245.1 149.8,246.6 
		149.8,247.4 149.1,248.5 148.1,248.7 146.1,250.2 146.5,250.8 148.5,250.6 148,251.8 145.5,252.8 145.1,253.3 145.2,253.7 
		146.1,253.9 145.8,255.3 146.1,257 145.1,258 145.2,259.2 144.2,259.4 143.6,258.7 143.5,259.8 145.6,260.1 145.9,260.7 
		145.1,261.2 142.8,260.7 142.8,261.3 141,259.9 140.6,260.2 	"/>
	<polygon class="st0" points="131.2,260.3 117.4,260.5 117.4,248.9 117.5,241.9 131.4,242.1 	"/>
	<polygon class="st0" points="54.9,251 61.9,248.5 61.9,243.9 67.5,243.9 75.5,244.1 80.2,244.2 80.1,258.1 77.4,264.2 76.6,264.8 
		76.4,266 74.9,264.1 69.6,260.7 69.2,260.7 69.1,261.4 67.6,262.3 66.1,262.2 64.4,260.4 65.2,257.6 63.1,257.3 61.8,256.1 
		58.6,254 57.9,252.9 	"/>
	<polygon class="st0" points="99.6,248.9 99.4,250 100.1,250.8 99.4,253.2 99.1,256.2 97.8,258.4 80.1,258.1 80.2,244.2 99,244.4 
		98.9,248.9 	"/>
	<polygon class="st0" points="117.4,260.5 117.4,262.7 98.8,262.8 98.8,258.4 97.8,258.4 99.1,256.2 99.4,253.2 100.1,250.8 
		99.4,250 99.6,248.9 117.4,248.9 	"/>
	<polygon class="st0" points="98.9,276.6 86.1,276.5 86,277.7 85.4,278.4 83.4,278.3 83.8,276 83.6,274.2 83.8,272.6 83.5,271.8 
		81,271.2 77.5,269.2 77.1,267.1 76.4,266 76.6,264.8 77.4,264.2 80.1,258.1 97.8,258.4 98.8,258.4 98.8,262.8 	"/>
	<polygon class="st0" points="141.4,277.7 140.4,277.7 138.9,276.2 131.1,276.4 131.2,260.3 140.6,260.2 141,259.9 142.8,261.3 
		143.8,262.7 145.6,264 145.1,264.8 143.2,264.6 143.4,265.4 145.5,266 144,269.7 141.4,271.5 140.2,273.6 140.4,275.3 	"/>
	<polygon class="st0" points="129.8,276.4 117.1,276.6 117.4,262.7 117.4,260.5 131.2,260.3 131.1,276.4 	"/>
	<polygon class="st0" points="117.1,276.6 103.2,276.7 98.9,276.6 98.8,262.8 117.4,262.7 	"/>
	<polygon class="st0" points="129.5,286.3 129.8,276.4 131.1,276.4 138.9,276.2 140.4,277.7 141.4,277.7 144,281.5 143.2,283.3 
		134,285.1 132,286.9 	"/>
	<polygon class="st0" points="126.5,304.7 126.5,299.6 117.1,290.5 117.1,276.6 129.8,276.4 129.5,286.3 127.5,287.3 125.6,292.8 
		126.1,294.8 128.1,297.5 129.4,300.1 128.1,303.2 127.1,304.5 	"/>
	<polygon class="st0" points="85.6,290.5 87.1,289.7 87.4,286.8 86.2,284.6 84.6,282.5 83.4,278.3 85.4,278.4 86,277.7 86.1,276.5 
		98.9,276.6 103.2,276.7 103.1,290.7 95,290.6 	"/>
	<polygon class="st0" points="108.1,292 107.1,292.3 105.6,291.7 103.1,292.6 103.1,290.7 103.2,276.7 117.1,276.6 117.1,290.5 
		109.1,290.6 108.6,291.6 	"/>
	<polygon class="st0" points="117.1,290.5 126.5,299.6 126.5,304.7 125.4,304.9 123.6,304.5 121.4,302.6 118.2,301.2 116.1,300.9 
		115.8,300.4 111,297.7 108.1,296.9 108.1,292 108.6,291.6 109.1,290.6 	"/>
	<polygon class="st0" points="84.8,294.9 83.8,293.8 83.8,292.3 84.4,291.1 85.6,290.5 95,290.6 96.1,291.9 96.4,293.1 94.9,294.2 
		94.6,296.2 94.1,296.5 94.1,297.6 94.6,298 94.1,299 94.1,301.7 95,302.8 97.8,303.7 98.1,305 98,307 99,308.4 99.8,308.9 
		97.1,309 96.5,306.8 95.2,306.1 94.1,303.8 93.4,303.5 92.6,303.8 92.2,305.1 94.1,306.9 94.2,307.9 93.5,308.4 92.2,307.8 
		89.2,305.7 89.4,303.1 87.6,301.1 86.9,299.7 85.6,296.6 85.8,295 	"/>
	<polygon class="st0" points="98.1,305 97.8,303.7 95,302.8 94.1,301.7 94.1,299 94.6,298 94.1,297.6 94.1,296.5 94.6,296.2 
		94.9,294.2 96.4,293.1 96.1,291.9 95,290.6 103.1,290.7 103.1,292.6 105.6,291.7 107.1,292.3 108.1,292 108.1,296.9 105.6,296.8 
		102.6,298.6 100.4,302.4 99.1,303.4 	"/>
	<polygon class="st0" points="66.8,26.6 66.6,9.3 70.4,9.3 88.6,9.7 88.5,26.4 76.2,26.6 	"/>
	<polygon class="st0" points="107.6,29.1 97.9,29.2 97.8,26.4 88.5,26.4 88.6,9.7 90.2,9.6 107.8,10 	"/>
	<polygon class="st0" points="122.1,29 117.4,29 117.5,10.1 134.6,10 138.9,10.1 138.5,28.9 136.9,28.9 	"/>
	<polygon class="st0" points="107.6,29.1 107.8,10 115.1,10 117.5,10.1 117.4,29 	"/>
	<polygon class="st0" points="155.5,10.1 153.8,20 157,28.9 138.5,28.9 138.9,10.1 	"/>
	<polygon class="st0" points="76.4,41.5 76.2,26.6 88.5,26.4 97.8,26.4 97.9,29.2 107.6,29.1 107.5,43.7 90.1,43.9 90,43.2 
		88.5,43.2 87.4,44 87.1,42.9 86.6,42.8 85.4,42.8 85.1,43.1 78.8,43.1 78.6,41.5 	"/>
	<polygon class="st0" points="76.4,41.5 57.1,41.6 57.6,38.6 57.2,35.8 56.5,34.3 56.6,31.9 56.1,30.9 55.5,30.8 53.9,28.7 50,26.6 
		66.8,26.6 76.2,26.6 	"/>
	<polygon class="st0" points="135.9,38.3 135.8,33.9 136.9,33.8 136.9,28.9 138.5,28.9 157,28.9 160.6,34.4 163.1,46.3 166.6,53.2 
		166.5,67.4 155.6,67.5 155.4,61.9 150.6,62 150.6,57.5 145.6,57.6 145.6,54.8 147.8,54.8 150.1,53.2 150,37.8 	"/>
	<polygon class="st0" points="121.6,53.4 121.5,33.9 122.1,33.9 122.1,29 136.9,28.9 136.9,33.8 135.8,33.9 135.9,38.3 135.9,53.1 	
		"/>
	<polygon class="st0" points="121.5,58.1 107.6,58.4 107.5,43.7 107.6,29.1 117.4,29 122.1,29 122.1,33.9 121.5,33.9 121.6,53.4 
		121.4,53.6 	"/>
	<polygon class="st0" points="135.9,53.1 135.9,38.3 150,37.8 150.1,53.2 147.8,54.8 145.6,54.8 145.6,52.9 	"/>
	<polygon class="st0" points="56.1,60.9 57.1,59.5 56.9,58 55.9,56.4 54.5,55.6 53.6,54.3 52.9,50 55.4,48.6 57.1,41.6 76.4,41.5 
		78.6,41.5 78.8,43.1 78.6,60.8 69,61 	"/>
	<polygon class="st0" points="78.6,60.8 78.8,43.1 85.1,43.1 85.4,42.8 86.6,42.8 87.1,42.9 87.4,44 88.5,43.2 90,43.2 90.1,43.9 
		107.5,43.7 107.6,58.4 98.1,58.5 98.1,60.7 	"/>
	<g>
		<g>
			<g id="_x30_f8TzS_3_">
				<g>
					<path class="st1" d="M109.2,47.7c0.1-6.4,4.8-11.7,10.9-12.4c6.5-0.7,12.3,3.3,13.7,9.7c0.6,2.8,0.4,5.5-0.9,8
						c-3.1,5.9-6.1,11.9-9.2,17.8c-0.2,0.3-0.4,0.6-0.5,1c-0.4,0.8-0.9,1.2-1.8,1.2c-0.8,0-1.4-0.5-1.7-1.2
						c-1.8-3.6-3.6-7.2-5.3-10.8c-1.3-2.7-2.7-5.4-4-8.1C109.6,51.3,109.2,49.6,109.2,47.7z"/>
				</g>
			</g>
		</g>
		<g>
			<path class="st2" d="M118.1,53H116c-0.1,0-0.2,0.1-0.2,0.2v1.5c0,0.1,0.1,0.2,0.2,0.2h2.1c0.1,0,0.2-0.1,0.2-0.2v-1.5
				C118.2,53,118.1,53,118.1,53z M118,54.4h-1.7v-1.1h1.7V54.4z"/>
			<path class="st2" d="M120.9,53h-2c-0.1,0-0.2,0.1-0.2,0.2v1.5c0,0.1,0.1,0.2,0.2,0.2h2.1c0.1,0,0.2-0.1,0.2-0.2v-1.5
				C121.1,53,121,53,120.9,53z M120.6,54.4h-1.7v-1.1h1.7V54.4z"/>
			<path class="st2" d="M123.6,53h-2.1c-0.1,0-0.2,0.1-0.2,0.2v1.5c0,0.1,0.1,0.2,0.2,0.2h2.1c0.1,0,0.2-0.1,0.2-0.2v-1.5
				C123.9,53,123.8,53,123.6,53z M123.5,54.4h-1.7v-1.1h1.7V54.4z"/>
			<path class="st2" d="M114.6,46.1l0.1,0.1h0.2v9.3c0,0.1,0.1,0.2,0.2,0.2h13.1c0.1,0,0.2-0.1,0.2-0.2v-9.3h0.2
				c0.1,0,0.1,0,0.1-0.1c0,0,0.1-0.1,0.1-0.2l-0.4-3.5l0,0v-1c0-0.1-0.1-0.2-0.2-0.2h-13.1c-0.1,0-0.2,0.1-0.2,0.2v1l0,0l-0.4,3.5
				C114.6,46,114.6,46.1,114.6,46.1z M115.4,42.6h12.8l0.3,3.1h-0.2h-3.8h-9.3h-0.2L115.4,42.6z M124.4,46.2v5.9h-8.9v-5.9H124.4z
				 M115.4,52.5h8.9v2.8h-8.9V52.5z M128.1,55.3h-3.4v-9.1h3.4V55.3z M115.4,41.6h12.8v0.6h-12.8V41.6z"/>
		</g>
	</g>
	<g>
		<g id="_x30_f8TzS_1_">
			<g>
				<path class="st3" d="M91.6,26.4c0.1-6.4,4.8-11.7,10.9-12.4c6.5-0.7,12.3,3.3,13.7,9.7c0.6,2.8,0.4,5.5-0.9,8
					c-3.1,5.9-6.1,11.9-9.2,17.8c-0.2,0.3-0.4,0.6-0.5,1c-0.4,0.8-0.9,1.2-1.8,1.2c-0.8,0-1.4-0.5-1.7-1.2
					c-1.8-3.6-3.6-7.2-5.3-10.8c-1.3-2.7-2.7-5.4-4-8.1C92,30,91.6,28.2,91.6,26.4z"/>
			</g>
		</g>
	</g>
	<g>
		<g id="_x30_f8TzS_4_">
			<g>
				<path class="st1" d="M122.2,35.4c0.1-6.4,4.8-11.7,10.9-12.4c6.5-0.7,12.3,3.3,13.7,9.7c0.6,2.8,0.4,5.5-0.9,8
					c-3.1,5.9-6.1,11.9-9.2,17.8c-0.2,0.3-0.4,0.6-0.5,1c-0.4,0.8-0.9,1.2-1.8,1.2c-0.8,0-1.4-0.5-1.7-1.2
					c-1.8-3.6-3.6-7.2-5.3-10.8c-1.3-2.7-2.7-5.4-4-8.1C122.6,39,122.2,37.2,122.2,35.4z"/>
			</g>
		</g>
		<g>
			<path class="st2" d="M131.6,42.5h-2.1c-0.1,0-0.2,0.1-0.2,0.2v1.5c0,0.1,0.1,0.2,0.2,0.2h2.1c0.1,0,0.2-0.1,0.2-0.2v-1.5
				C131.8,42.6,131.6,42.5,131.6,42.5z M131.4,44h-1.7v-1.1h1.7V44z"/>
			<path class="st2" d="M134.2,42.5h-2.1c-0.1,0-0.2,0.1-0.2,0.2v1.5c0,0.1,0.1,0.2,0.2,0.2h2.1c0.1,0,0.2-0.1,0.2-0.2v-1.5
				C134.5,42.6,134.5,42.5,134.2,42.5z M134.1,44h-1.7v-1.1h1.7V44z"/>
			<path class="st2" d="M137.1,42.5H135c-0.1,0-0.2,0.1-0.2,0.2v1.5c0,0.1,0.1,0.2,0.2,0.2h2.1c0.1,0,0.2-0.1,0.2-0.2v-1.5
				C137.2,42.6,137.1,42.5,137.1,42.5z M136.9,44h-1.7v-1.1h1.7V44z"/>
			<path class="st2" d="M128.1,35.7l0.1,0.1h0.2v9.3c0,0.1,0.1,0.2,0.2,0.2h13.1c0.1,0,0.2-0.1,0.2-0.2v-9.3h0.2
				c0.1,0,0.1,0,0.1-0.1c0,0,0.1-0.1,0.1-0.2l-0.4-3.5l0,0v-1c0-0.1-0.1-0.2-0.2-0.2h-13.1c-0.1,0-0.2,0.1-0.2,0.2v1l0,0l-0.4,3.5
				C128.1,35.6,128.1,35.6,128.1,35.7z M128.8,32.2h12.8l0.3,3.1h-0.2h-3.8h-9.3h-0.2L128.8,32.2z M137.8,35.7v5.9h-8.9v-5.9H137.8z
				 M128.8,42h8.9v2.8h-8.9V42z M141.6,44.8h-3.4v-9.1h3.4V44.8z M128.8,31.2h12.8v0.6h-12.8V31.2z"/>
		</g>
	</g>
	<g id="_x30_f8TzS_2_">
		<g>
			<path class="st3" d="M118.2,82.4c0.1-6.4,4.8-11.7,10.9-12.4c6.5-0.7,12.3,3.3,13.7,9.7c0.6,2.8,0.4,5.5-0.9,8
				c-3.1,5.9-6.1,11.9-9.2,17.8c-0.2,0.3-0.4,0.6-0.5,1c-0.4,0.8-0.9,1.2-1.8,1.2c-0.8,0-1.4-0.5-1.7-1.2c-1.8-3.6-3.6-7.2-5.3-10.8
				c-1.3-2.7-2.7-5.4-4-8.1C118.6,86,118.2,84.2,118.2,82.4z"/>
		</g>
	</g>
	<g>
		<g id="_x30_f8TzS_6_">
			<g>
				<path class="st1" d="M149,12.7c0.1-6.4,4.8-11.7,10.9-12.4c6.5-0.7,12.3,3.3,13.7,9.7c0.6,2.8,0.4,5.5-0.9,8
					c-3.1,5.9-6.1,11.9-9.2,17.8c-0.2,0.3-0.4,0.6-0.5,1c-0.4,0.8-0.9,1.2-1.8,1.2c-0.8,0-1.4-0.5-1.7-1.2
					c-1.8-3.6-3.6-7.2-5.3-10.8c-1.3-2.7-2.7-5.4-4-8.1C149.4,16.3,149,14.6,149,12.7z"/>
			</g>
		</g>
	</g>
	<g>
		<path class="st2" d="M158.4,18.5h-2.1c-0.1,0-0.2,0.1-0.2,0.2v1.5c0,0.1,0.1,0.2,0.2,0.2h2.1c0.1,0,0.2-0.1,0.2-0.2v-1.5
			C158.6,18.6,158.5,18.5,158.4,18.5z M158.1,20h-1.7v-1.1h1.7V20z"/>
		<path class="st2" d="M161.1,18.5H159c-0.1,0-0.2,0.1-0.2,0.2v1.5c0,0.1,0.1,0.2,0.2,0.2h2.1c0.1,0,0.2-0.1,0.2-0.2v-1.5
			C161.2,18.6,161.2,18.5,161.1,18.5z M161,20h-1.7v-1.1h1.7V20z"/>
		<path class="st2" d="M163.9,18.5h-2.1c-0.1,0-0.2,0.1-0.2,0.2v1.5c0,0.1,0.1,0.2,0.2,0.2h2.1c0.1,0,0.2-0.1,0.2-0.2v-1.5
			C164.1,18.6,164,18.5,163.9,18.5z M163.6,20h-1.7v-1.1h1.7V20z"/>
		<path class="st2" d="M154.9,11.6l0.1,0.1h0.2V21c0,0.1,0.1,0.2,0.2,0.2h13.1c0.1,0,0.2-0.1,0.2-0.2v-9.3h0.2c0.1,0,0.1,0,0.1-0.1
			c0,0,0.1-0.1,0.1-0.2l-0.4-3.5l0,0v-1c0-0.1-0.1-0.2-0.2-0.2h-13.1c-0.1,0-0.2,0.1-0.2,0.2v1l0,0l-0.4,3.5
			C154.9,11.5,154.9,11.6,154.9,11.6z M155.6,8.2h12.8l0.3,3.1h-0.2h-3.8h-9.3h-0.2L155.6,8.2z M164.6,11.7v5.9h-8.9v-5.9H164.6z
			 M155.6,18h8.9v2.8h-8.9V18z M168.4,20.8H165v-9.1h3.4V20.8z M155.6,7.2h12.8v0.6h-12.8V7.2z"/>
	</g>
	<g>
		<g id="_x30_f8TzS_5_">
			<g>
				<path class="st1" d="M136.1,30.6c0.1-6.4,4.8-11.7,10.9-12.4c6.5-0.7,12.3,3.3,13.7,9.7c0.6,2.8,0.4,5.5-0.9,8
					c-3.1,5.9-6.1,11.9-9.2,17.8c-0.2,0.3-0.4,0.6-0.5,1c-0.4,0.8-0.9,1.2-1.8,1.2c-0.8,0-1.4-0.5-1.7-1.2
					c-1.8-3.6-3.6-7.2-5.3-10.8c-1.3-2.7-2.7-5.4-4-8.1C136.5,34.1,136.1,32.4,136.1,30.6z"/>
			</g>
		</g>
	</g>
	<g>
		<path class="st2" d="M104.5,19.2c-0.1-0.1-0.2-0.1-0.3,0l-6.8,6.7c0,0-0.1,0.1-0.1,0.2v7c0,0.1,0,0.1,0.1,0.2c0,0,0.1,0.1,0.2,0.1
			h6.2l0,0l0,0h7.4c0.1,0,0.1,0,0.2-0.1s0.1-0.1,0.1-0.2v-7c0-0.1,0-0.1-0.1-0.2L104.5,19.2z M97.6,26.2l6.6-6.4l6.6,6.4v6.7h-7V31
			c0-0.2,0-0.4,0.1-0.6c0.2,0.1,0.3,0.2,0.5,0.2c0.3,0.1,0.7,0.2,1,0.2c0.2,0,0.5,0,0.7-0.1c0.4-0.2,0.7-0.4,0.9-0.8
			c0.4-0.5,0.6-1.2,0.8-1.8c0.2-0.7,0.2-1.4,0.2-2c0-0.1,0-0.1,0-0.2l0,0l0,0l0,0l0,0l0,0l0,0l0,0l0,0l0,0l0,0l0,0l0,0l0,0l0,0l0,0
			l0,0l0,0l0,0c-0.2,0-0.4-0.1-0.6-0.1c-0.8,0-1.7,0.2-2.5,0.8c-0.4,0.3-0.7,0.7-1,1.2c-0.1,0.2-0.2,0.3-0.2,0.5l0,0
			c-0.3-0.6-0.7-0.9-1.2-1.1c-0.5-0.2-1-0.3-1.4-0.3c-0.2,0-0.4,0-0.6,0.1l0,0l0,0l0,0l0,0l0,0l0,0l0,0l0,0l0,0l0,0l0,0l0,0l0,0l0,0
			l0,0l0,0c0,0.1,0,0.2,0,0.3c0,0.7,0.1,1.5,0.4,2.2c0.1,0.3,0.3,0.6,0.6,0.8c0.2,0.2,0.6,0.4,0.9,0.4c0.2,0,0.5-0.1,0.8-0.2
			c0.2-0.1,0.5-0.2,0.7-0.4l0.1,0.1c-0.1,0.3-0.2,0.5-0.2,0.8v1.8H98v-6.6H97.6z M105.6,28.2c-0.1-0.1-0.2-0.1-0.3,0
			c-0.2,0.2-0.3,0.4-0.4,0.5c-0.1,0.2-0.3,0.3-0.5,0.4c-0.2,0.2-0.4,0.4-0.6,0.6c0,0-0.1,0-0.1-0.1s0-0.1,0-0.2
			c0-0.7,0.1-1.2,0.4-1.7c0.3-0.7,0.8-1.1,1.4-1.4c0.6-0.3,1.2-0.4,1.7-0.4c0.1,0,0.3,0,0.4,0l0,0c0,0.9-0.2,2-0.5,2.9
			c-0.2,0.4-0.4,0.8-0.7,1c-0.1,0.1-0.3,0.2-0.4,0.3c-0.2,0.1-0.3,0.1-0.5,0.1s-0.5-0.1-0.8-0.2c-0.1-0.1-0.3-0.1-0.4-0.2
			c0.1-0.2,0.3-0.3,0.5-0.5s0.4-0.3,0.6-0.5s0.3-0.4,0.5-0.6C105.8,28.4,105.8,28.3,105.6,28.2z M100.6,27.2c0.1,0,0.2,0,0.3,0
			c0.5,0,1.1,0.1,1.6,0.5c0.2,0.2,0.4,0.4,0.6,0.7c0.1,0.3,0.2,0.7,0.2,1.1c0,0.1,0,0.1,0,0.2c-0.2,0.2-0.5,0.3-0.7,0.4
			c-0.2,0.1-0.4,0.1-0.6,0.1c-0.3,0-0.4-0.1-0.6-0.2c-0.3-0.2-0.5-0.7-0.6-1.2C100.6,28.4,100.6,27.8,100.6,27.2
			C100.6,27.3,100.6,27.2,100.6,27.2z"/>
	</g>
	<g>
		<path class="st2" d="M130.6,76.6c-0.1-0.1-0.2-0.1-0.3,0l-6.8,6.7c0,0-0.1,0.1-0.1,0.2v7c0,0.1,0,0.1,0.1,0.2c0,0,0.1,0.1,0.2,0.1
			h6.2l0,0l0,0h7.4c0.1,0,0.1,0,0.2-0.1c0,0,0.1-0.1,0.1-0.2v-7c0-0.1,0-0.1-0.1-0.2L130.6,76.6z M123.8,83.5l6.6-6.4l6.6,6.4v6.7
			h-7v-1.8c0-0.2,0-0.4,0.1-0.6c0.2,0.1,0.3,0.2,0.5,0.2c0.3,0.1,0.7,0.2,1,0.2c0.2,0,0.5,0,0.7-0.1c0.4-0.2,0.7-0.4,0.9-0.8
			c0.4-0.5,0.6-1.2,0.8-1.8c0.2-0.7,0.2-1.4,0.2-2c0-0.1,0-0.1,0-0.2l0,0l0,0l0,0l0,0l0,0l0,0l0,0l0,0l0,0l0,0l0,0l0,0l0,0l0,0l0,0
			l0,0l0,0l0,0c-0.2,0-0.4-0.1-0.6-0.1c-0.8,0-1.7,0.2-2.5,0.8c-0.4,0.3-0.7,0.7-1,1.2c-0.1,0.2-0.2,0.3-0.2,0.5l0,0
			c-0.3-0.6-0.7-0.9-1.2-1.1c-0.5-0.2-1-0.3-1.4-0.3c-0.2,0-0.4,0-0.6,0.1l0,0l0,0l0,0l0,0l0,0l0,0l0,0l0,0l0,0l0,0l0,0l0,0l0,0l0,0
			l0,0l0,0c0,0.1,0,0.2,0,0.3c0,0.7,0.1,1.5,0.4,2.2c0.1,0.3,0.3,0.6,0.6,0.8c0.2,0.2,0.6,0.4,0.9,0.4c0.2,0,0.5-0.1,0.8-0.2
			c0.2-0.1,0.5-0.2,0.7-0.4l0.1,0.1c-0.1,0.3-0.2,0.5-0.2,0.8v1.8h-5.8v-6.7H123.8z M131.8,85.5c-0.1-0.1-0.2-0.1-0.3,0
			c-0.2,0.2-0.3,0.4-0.4,0.5c-0.1,0.2-0.3,0.3-0.5,0.4c-0.2,0.2-0.4,0.4-0.6,0.6c0,0-0.1,0-0.1-0.1s0-0.1,0-0.2
			c0-0.7,0.1-1.2,0.4-1.7c0.3-0.7,0.8-1.1,1.4-1.4c0.6-0.3,1.2-0.4,1.7-0.4c0.1,0,0.3,0,0.4,0l0,0c0,0.9-0.2,2-0.5,2.9
			c-0.2,0.4-0.4,0.8-0.7,1c-0.1,0.1-0.3,0.2-0.4,0.3c-0.2,0.1-0.3,0.1-0.5,0.1s-0.5-0.1-0.8-0.2c-0.1-0.1-0.3-0.1-0.4-0.2
			c0.1-0.2,0.3-0.3,0.5-0.5s0.4-0.3,0.6-0.5s0.3-0.4,0.5-0.6C131.9,85.7,131.9,85.6,131.8,85.5z M126.6,84.5c0.1,0,0.2,0,0.3,0
			c0.5,0,1.1,0.1,1.6,0.5c0.2,0.2,0.4,0.4,0.6,0.7c0.1,0.3,0.2,0.7,0.2,1.1c0,0.1,0,0.1,0,0.2c-0.2,0.2-0.5,0.3-0.7,0.4
			c-0.2,0.1-0.4,0.1-0.6,0.1c-0.3,0-0.4-0.1-0.6-0.2c-0.3-0.2-0.5-0.7-0.6-1.2C126.8,85.7,126.6,85.1,126.6,84.5
			C126.6,84.6,126.6,84.5,126.6,84.5z"/>
	</g>
	<g>
		<path class="st2" d="M145.1,36.4H143c-0.1,0-0.2,0.1-0.2,0.2v1.5c0,0.1,0.1,0.2,0.2,0.2h2.1c0.1,0,0.2-0.1,0.2-0.2v-1.5
			C145.4,36.4,145.2,36.4,145.1,36.4z M145,37.8h-1.7v-1.1h1.7V37.8z"/>
		<path class="st2" d="M148,36.4h-2.1c-0.1,0-0.2,0.1-0.2,0.2v1.5c0,0.1,0.1,0.2,0.2,0.2h2.1c0.1,0,0.2-0.1,0.2-0.2v-1.5
			C148.1,36.4,148.1,36.4,148,36.4z M147.8,37.8H146v-1.1h1.7V37.8z"/>
		<path class="st2" d="M150.6,36.4h-2.1c-0.1,0-0.2,0.1-0.2,0.2v1.5c0,0.1,0.1,0.2,0.2,0.2h2.1c0.1,0,0.2-0.1,0.2-0.2v-1.5
			C150.9,36.4,150.8,36.4,150.6,36.4z M150.5,37.8h-1.7v-1.1h1.7V37.8z"/>
		<path class="st2" d="M141.8,29.5l0.1,0.1h0.2v9.3c0,0.1,0.1,0.2,0.2,0.2h13.1c0.1,0,0.2-0.1,0.2-0.2v-9.3h0.2c0.1,0,0.1,0,0.1-0.1
			c0,0,0.1-0.1,0.1-0.2l-0.4-3.5l0,0v-1c0-0.1-0.1-0.2-0.2-0.2h-13.1c-0.1,0-0.2,0.1-0.2,0.2v1l0,0l-0.4,3.5
			C141.6,29.4,141.6,29.5,141.8,29.5z M142.4,26h12.8l0.3,3.1h-0.2h-3.8h-9.3h-0.2L142.4,26z M151.4,29.6v5.9h-8.9v-5.9H151.4z
			 M142.5,35.9h8.9v2.8h-8.9V35.9z M155.1,38.7h-3.4v-9.1h3.4V38.7z M142.5,25h12.8v0.6h-12.8V25z"/>
	</g>
</g>
</svg>
