<?xml version="1.0" encoding="utf-8"?>
<!-- Generator: Adobe Illustrator 19.2.0, SVG Export Plug-In . SVG Version: 6.00 Build 0)  -->
<svg version="1.1" id="IL" xmlns="http://www.w3.org/2000/svg" xmlns:xlink="http://www.w3.org/1999/xlink" x="0px" y="0px"
	 viewBox="800 27 720 540" style="enable-background:new 800 27 720 540;" xml:space="preserve">
<style type="text/css">
	
		.st0{fill-rule:evenodd;clip-rule:evenodd;fill:#C1C1C1;stroke:#FFFFFF;stroke-width:0.5;stroke-linecap:round;stroke-linejoin:round;}
	.st1{fill:#4FAA99;stroke:#FFFFFF;stroke-width:0.5;stroke-miterlimit:10;}
	.st2{fill:#FFFFFF;}
	.st3{fill:#80BD41;stroke:#FFFFFF;stroke-width:0.5;stroke-miterlimit:10;}
</style>
<polygon class="st0" points="386.1,164.6 384.3,163.9 382.6,162.1 382.2,160.9 381.8,156.5 381.2,155.4 379.1,153.8 376.1,152 
	374.4,149.8 372.6,148.9 372.4,147.8 373,147 382.1,147.1 402.8,147.3 402.9,164.6 "/>
<polygon class="st0" points="381.4,213 354.8,212.9 355.6,209.2 356.8,207.9 357.9,207.5 360,208.1 364.4,206.8 367.1,206.5 
	370.1,206.5 372.1,205.8 374.6,203.1 377.1,202.2 380.6,202.1 381.5,201.3 382,199.9 385.1,198.8 385.5,197.9 385.4,195.4 
	386,191.3 386.9,189.4 389,188 389.8,192.3 390.6,193.6 392,194.4 393,196 393.3,197.5 392.2,198.9 391.9,200.3 391.1,201.2 
	389,202.3 384.3,202.8 383.5,204.9 381.5,205.9 "/>
<polygon class="st0" points="472.7,220.1 472.3,205.7 472,191.1 481.8,190.9 481.8,192.8 481.7,195.6 486.7,195.5 486.8,200 
	491.5,199.9 491.7,205.5 502.6,205.4 502.6,214.7 482.2,215.1 482.3,219.8 "/>
<polygon class="st0" points="457.8,191.4 472,191.1 472.3,205.7 457.9,206.1 457.6,196.1 457.5,191.6 "/>
<polygon class="st0" points="434.3,225.4 434.3,213.9 434.2,198.7 434.2,196.5 443.8,196.4 457.6,196.1 457.9,206.1 458.3,225.1 
	444,225.3 444,235.3 439,235.4 438.9,225.5 "/>
<polygon class="st0" points="405.4,218.4 405.1,199 414.8,198.8 434.2,198.7 434.3,213.9 430.1,213.5 427,215.1 426.2,218.4 
	421.7,218.5 421.7,223 414.4,223.1 414.4,218.3 "/>
<polygon class="st0" points="381.2,222.8 381.4,213 381.5,205.9 383.5,204.9 384.3,202.8 389,202.3 391.1,201.2 391.9,200.3 
	392.2,198.9 405.1,199 405.4,218.4 404.9,218.4 404.9,223.1 400,223.1 "/>
<polygon class="st0" points="472.4,225 458.3,225.1 457.9,206.1 472.3,205.7 472.7,220.1 472.8,224.9 "/>
<polygon class="st0" points="359.8,227.5 359.7,225.7 358.3,223.4 357.1,222.3 355.6,221.7 353.7,218.6 353.6,216.6 354.8,212.9 
	381.4,213 381.2,222.8 381.1,227.8 366.7,227.6 "/>
<polygon class="st0" points="421.7,223 421.7,218.5 426.2,218.4 427,215.1 430.1,213.5 434.3,213.9 434.3,225.4 426.8,225.7 
	427.6,223 "/>
<polygon class="st0" points="477.6,231.2 472.6,231.3 472.4,225 472.8,224.9 472.7,220.1 482.3,219.8 482.2,215.1 502.6,214.7 
	502.6,221.8 502.6,230.9 "/>
<polygon class="st0" points="414.3,232.7 400.1,232.6 400,223.1 404.9,223.1 404.9,218.4 405.4,218.4 414.4,218.3 414.4,223.1 "/>
<polygon class="st0" points="399.9,246.9 380.8,247.4 381.1,227.8 381.2,222.8 400,223.1 400.1,232.6 "/>
<polygon class="st0" points="434.3,225.4 438.9,225.5 439,235.4 421.4,235.7 422,234.9 422.4,232.8 414.3,232.7 414.4,223.1 
	421.7,223 427.6,223 426.8,225.7 "/>
<polygon class="st0" points="444,235.3 444,225.3 458.3,225.1 472.4,225 472.6,231.3 473.1,252.2 463.8,252.4 459,252.4 458.7,245 
	444.2,245 "/>
<polygon class="st0" points="348.9,251.1 351.1,250.4 352.5,249 352.9,247.7 354,244.6 354.2,240.6 355.9,238.1 358.6,235.6 
	359.5,234.2 359.8,227.5 366.7,227.6 366.3,251.4 361.5,251.3 "/>
<polygon class="st0" points="380.8,251.8 366.3,251.4 366.7,227.6 381.1,227.8 380.8,247.4 "/>
<polygon class="st0" points="485.6,259.8 478.2,259.4 477.6,231.2 502.6,230.9 502.6,245.5 502.4,259.3 "/>
<polygon class="st0" points="485.7,264.3 463.7,264.4 463.8,252.4 473.1,252.2 472.6,231.3 477.6,231.2 478.2,259.4 485.6,259.8 "/>
<polygon class="st0" points="399.9,246.9 400.1,232.6 414.3,232.7 422.4,232.8 422,234.9 421.4,235.7 420.1,238.5 418,241.5 
	417.8,242.9 418.2,245.4 418.5,246.2 418.2,247.3 417.4,248.5 415.4,249.7 415.5,250.9 414,252.9 413.9,254.5 413.3,255.3 
	407.6,256.2 404.8,258.2 405.1,253.9 404.5,253.9 404.7,251.5 400,251.5 "/>
<polygon class="st0" points="418.2,245.4 417.8,242.9 418,241.5 420.1,238.5 421.4,235.7 439,235.4 444,235.3 444.2,245 441.9,245 
	441.8,249.9 439.6,250 439.5,251.9 437,251.9 437,252.7 435.6,252.6 435.6,253.4 429.9,253.5 429.8,252.5 427.5,252.5 427.4,245.5 
	"/>
<polygon class="st0" points="463.7,270.5 459.1,270.5 434.9,270.7 430.2,270.7 430.1,268.3 429.9,253.5 435.6,253.4 435.6,252.6 
	437,252.7 437,251.9 439.5,251.9 439.6,250 441.8,249.9 441.9,245 444.2,245 458.7,245 459,252.4 463.8,252.4 463.7,264.4 "/>
<polygon class="st0" points="430.1,268.3 415.9,268.6 411.4,268.6 411.2,262.3 402.5,262.1 403.5,261.1 404.2,258.9 404.8,258.2 
	407.6,256.2 413.3,255.3 413.9,254.5 414,252.9 415.5,250.9 415.4,249.7 417.4,248.5 418.2,247.3 418.5,246.2 418.2,245.4 
	427.4,245.5 427.5,252.5 429.8,252.5 429.9,253.5 "/>
<polygon class="st0" points="380.6,271.2 380.8,251.8 380.8,247.4 399.9,246.9 400,251.5 404.7,251.5 404.5,253.9 405.1,253.9 
	404.8,258.2 404.2,258.9 403.5,261.1 402.5,262.1 401,263 399.7,264.5 397.7,265.6 396.3,270.1 394.7,272.1 394.2,273.5 
	392.6,274.4 391,276 380.6,275.7 "/>
<polygon class="st0" points="337.1,272.6 337.6,269.4 339.2,266 340.4,265.2 341.8,264.9 342.4,264.3 341.8,261.9 342.3,258.8 
	342,257.4 340.7,256.3 340.8,255 342.2,253.3 347,251.3 348.9,251.1 361.5,251.3 361.3,270.8 361.2,275.6 336.8,275.4 "/>
<polygon class="st0" points="380.6,271.2 361.3,270.8 361.5,251.3 366.3,251.4 380.8,251.8 "/>
<polygon class="st0" points="502.5,277.2 502.5,292.4 500.6,292.4 501.2,293.1 498.9,293.1 498.8,292.4 485.5,292.6 485.3,273.6 
	485.8,273.6 485.7,264.3 485.6,259.8 502.4,259.3 502.5,259.9 "/>
<polygon class="st0" points="384.9,279.3 385.4,278.4 386.4,278.4 387.6,277.7 390.5,277.5 391,276.9 391,276 392.6,274.4 
	394.2,273.5 394.7,272.1 396.3,270.1 397.7,265.6 399.7,264.5 401,263 402.5,262.1 411.2,262.3 411.4,268.6 415.9,268.6 
	416.1,278.9 413.9,277.3 412.2,278.4 411.4,278.4 409.8,279.1 408.9,278.9 407.9,279.3 406.8,279.4 406.1,278.6 405.2,279.2 
	404.7,278.4 404.1,279 402.8,278.6 401.1,278.7 399.6,280.1 397,280.7 395.9,281.7 394.2,282.5 391.8,282.5 391.2,282.9 
	389.7,283.2 388.9,282.5 388.3,282.9 387.6,282.7 386.5,280.3 "/>
<polygon class="st0" points="463.6,292.8 463.7,270.5 463.7,264.4 485.7,264.3 485.8,273.6 485.3,273.6 485.5,292.6 "/>
<polygon class="st0" points="416.9,287.5 417.1,281.1 416.2,281.1 416.1,278.9 415.9,268.6 430.1,268.3 430.2,270.7 434.9,270.7 
	435,283.3 435,290.7 432,290.7 424.2,290.8 424.2,290 420.7,289.9 420.8,287.4 "/>
<polygon class="st0" points="451.6,283.1 451.6,280.7 454.2,280.7 454.3,278.5 459.1,270.5 463.7,270.5 463.6,292.8 463.5,297.8 
	463.2,297.7 451.8,297.5 "/>
<polygon class="st0" points="435,283.3 434.9,270.7 459.1,270.5 454.3,278.5 454.2,280.7 451.6,280.7 451.6,283.1 "/>
<polygon class="st0" points="361.1,280.4 361.2,275.6 361.3,270.8 380.6,271.2 380.6,275.7 391,276 391,276.9 390.5,277.5 
	387.6,277.7 386.4,278.4 385.4,278.4 384.9,279.3 383.4,279.8 382.8,282 381.8,282.5 381.2,285.2 378.1,286.9 374.4,287.2 
	374.3,286.1 373.7,285.5 374.2,285.2 374,284.8 372.7,284.7 371.2,283.8 371.3,282.2 369.9,281.9 370.5,280.5 "/>
<polygon class="st0" points="361.2,294.6 361.1,299 342.3,299.3 342,297 339.2,293.8 339.1,292.6 339.8,291.7 339.9,290.6 
	339.2,289.2 337.6,286 336.9,282.7 336.4,279 336.8,275.4 361.2,275.6 361.1,280.4 "/>
<polygon class="st0" points="399.7,291.4 399.6,280.1 401.1,278.7 402.8,278.6 404.1,279 404.7,278.4 405.2,279.2 406.1,278.6 
	406.8,279.4 407.9,279.3 408.9,278.9 409.8,279.1 411.4,278.4 412.2,278.4 413.9,277.3 416.1,278.9 416.2,281.1 417.1,281.1 
	416.9,287.5 411.9,287.6 411.7,290.7 409.2,290.7 409,291.3 "/>
<polygon class="st0" points="375.2,292.8 377,290.8 378.1,286.9 381.2,285.2 381.8,282.5 382.8,282 383.4,279.8 384.9,279.3 
	386.5,280.3 387.6,282.7 388.3,282.9 388.9,282.5 389.7,283.2 391.2,282.9 391.8,282.5 394.2,282.5 395.9,281.7 397,280.7 
	399.6,280.1 399.7,291.4 399.7,293 "/>
<polygon class="st0" points="375.6,294.7 363,294.9 361.2,294.6 361.1,280.4 370.5,280.5 369.9,281.9 371.3,282.2 371.2,283.8 
	372.7,284.7 374,284.8 374.2,285.2 373.7,285.5 374.3,286.1 374.4,287.2 378.1,286.9 377,290.8 375.2,292.8 "/>
<polygon class="st0" points="440,305 435.2,305 435.1,297.1 433.4,296.3 432,296.6 432,290.7 435,290.7 435,283.3 451.6,283.1 
	451.8,297.5 451.3,297.5 451.3,300.5 449.1,300.6 449.1,305 "/>
<polygon class="st0" points="412,311.9 402.6,312 402.6,310.3 400.2,302.3 399.7,293 399.7,291.4 409,291.3 409.2,290.7 
	411.7,290.7 411.9,287.6 416.9,287.5 420.8,287.4 420.7,289.9 424.2,290 424.2,290.8 432,290.7 432,296.6 430.5,296.1 429.5,297.5 
	427.5,299.1 424.3,300.3 423.2,300 423.1,303.4 420.9,303.5 420.9,305.5 418.8,305.6 418.8,311.9 "/>
<polygon class="st0" points="484.5,314.3 484.4,303.2 484.3,297.4 485.5,297.3 485.5,292.6 498.8,292.4 498.9,293.1 501.2,293.1 
	500.6,292.4 502.5,292.4 502.5,307.5 502.4,314.7 496.1,314.6 496.1,314.1 "/>
<polygon class="st0" points="484.4,303.2 480.6,303.4 480.7,304.9 463.3,305.3 463.2,297.7 463.5,297.8 463.6,292.8 485.5,292.6 
	485.5,297.3 484.3,297.4 "/>
<polygon class="st0" points="393.2,312.1 387,312.1 387.1,305.9 385.4,305.9 385.4,304.4 383.9,304.4 384,299.6 379.4,299.6 
	379.5,297.6 374.2,297.5 375.1,296.6 375.6,294.7 375.2,292.8 399.7,293 400.2,302.3 402.6,310.3 402.6,312 "/>
<polygon class="st0" points="349.4,308 344.7,303.4 342.6,301.3 342.3,299.3 361.1,299 361.2,294.6 363,294.9 375.6,294.7 
	375.1,296.6 374.2,297.5 372.7,302.4 372.9,303.7 374.1,305.7 375.3,309.9 375.1,312.1 373.7,317.8 373.9,319.2 360.1,318.8 
	356.4,316.5 355.2,314.9 354,311.9 351.4,310.6 "/>
<polygon class="st0" points="418.8,311.9 418.8,305.6 420.9,305.5 420.9,303.5 423.1,303.4 423.2,300 424.3,300.3 427.5,299.1 
	429.5,297.5 430.5,296.1 432,296.6 433.4,296.3 435.1,297.1 435.2,305 440,305 440,321.6 435.6,321.6 418.9,321.6 "/>
<polygon class="st0" points="463.4,316.1 458.5,316.1 458.5,314.7 457.9,314.6 457.9,313.9 457,313.9 457,313.1 456.1,313.1 
	456,312.1 453.1,312 453,309 449.2,308.9 449.1,305 449.1,300.6 451.3,300.5 451.3,297.5 451.8,297.5 463.2,297.7 463.3,305.3 "/>
<polygon class="st0" points="375.1,312.1 375.3,309.9 374.1,305.7 372.9,303.7 372.7,302.4 374.2,297.5 379.5,297.6 379.4,299.6 
	384,299.6 383.9,304.4 385.4,304.4 385.4,305.9 387.1,305.9 387,312.1 "/>
<polygon class="st0" points="482.5,320 463.4,320.1 463.4,316.1 463.3,305.3 480.7,304.9 480.6,303.4 484.4,303.2 484.5,314.3 
	482.5,314.2 "/>
<polygon class="st0" points="449.3,328.9 435.4,328.7 435.6,321.6 440,321.6 440,305 449.1,305 449.2,308.9 453,309 453.1,312 
	456,312.1 456.1,313.1 457,313.1 457,313.9 457.9,313.9 457.9,314.6 458.5,314.7 458.5,316.1 463.4,316.1 463.4,320.1 463.4,328.9 
	"/>
<polygon class="st0" points="412.1,340.6 411.7,321.3 412,321.3 412,311.9 418.8,311.9 418.9,321.6 435.6,321.6 435.4,328.7 
	430.7,328.8 430.6,339 416.6,338.9 416.6,340.5 414.4,340.6 "/>
<polygon class="st0" points="393.3,340.5 393.3,326.5 393.2,312.1 402.6,312 412,311.9 412,321.3 411.7,321.3 412.1,340.6 "/>
<polygon class="st0" points="393.3,326.5 391.1,326.8 391.1,328.3 386.4,328.3 386.4,330.9 379.1,331 378.5,331.7 378,330.4 
	375.9,330.4 375.2,330.8 375.3,331.7 374.3,334.1 374,332 374.6,328.9 373.6,320.8 373.9,319.2 373.7,317.8 375.1,312.1 387,312.1 
	393.2,312.1 "/>
<polygon class="st0" points="482.6,330.8 482.5,320 482.5,314.2 484.5,314.3 496.1,314.1 496.1,314.6 502.4,314.7 502.3,321.5 
	499.9,322.2 498.7,323.8 499.3,324.4 499.1,325.2 499.5,326.5 500.4,327 500.3,329.2 500,329.7 499.5,329.8 497.9,331.3 497,331.3 
	497,330.8 484.9,330.8 "/>
<polygon class="st0" points="374.3,334.1 374.1,334.6 375.6,338.7 375.6,340.1 376.7,342 377.4,342.7 379.3,342.2 380,342.6 
	377.5,346.2 375.8,347.3 373.5,346.8 371.7,343.9 370.2,338.4 370.1,337.3 370.8,335.4 369.7,332.6 369.7,329.9 369.1,328.3 
	368.8,327.1 367.1,324.4 364.1,321.5 360.1,318.8 373.9,319.2 373.6,320.8 374.6,328.9 374,332 "/>
<polygon class="st0" points="482.6,330.8 467.9,331 463.5,331 463.4,328.9 463.4,320.1 482.5,320 "/>
<polygon class="st0" points="393.3,340.5 388,340.5 388,344.4 386.3,344.4 382.4,342.4 380,342.6 379.3,342.2 377.4,342.7 
	376.7,342 375.6,340.1 375.6,338.7 374.1,334.6 374.3,334.1 375.3,331.7 375.2,330.8 375.9,330.4 378,330.4 378.5,331.7 379.1,331 
	386.4,330.9 386.4,328.3 391.1,328.3 391.1,326.8 393.3,326.5 "/>
<polygon class="st0" points="430.6,339 430.7,328.8 435.4,328.7 449.3,328.9 449.3,344.8 453.8,344.8 453.8,349.5 435.4,349.7 
	435.3,354.3 430.4,354.2 430.3,340 430.7,339.9 "/>
<polygon class="st0" points="467.9,344.9 453.8,344.8 449.3,344.8 449.3,328.9 463.4,328.9 463.5,331 467.9,331 "/>
<polygon class="st0" points="485,348.1 484.9,330.8 497,330.8 497,331.3 497.9,331.3 496.9,332.5 497.3,333.4 497.2,334.3 
	498.5,334.8 498.5,335.6 499.3,335.8 500.4,337 500.5,340.6 500.1,340.7 502,341.6 502.6,342.3 502.7,344 502.3,345.5 501.5,347.4 
	501.9,348 486.5,348.1 "/>
<polygon class="st0" points="485,348.1 472.2,348.2 467.8,348 467.9,344.9 467.9,331 482.6,330.8 484.9,330.8 "/>
<polygon class="st0" points="416.1,354.3 416,347.3 414.5,347.3 414.4,340.6 416.6,340.5 416.6,338.9 430.6,339 430.7,339.9 
	430.3,340 430.4,354.2 "/>
<polygon class="st0" points="394.6,351.1 394.9,349.5 394.1,348.3 389.5,345 388,344.4 388,340.5 393.3,340.5 412.1,340.6 
	414.4,340.6 414.5,347.3 416,347.3 416.1,354.3 416.1,358.6 411.6,358.7 392,358.7 391.2,356.4 391.4,355.2 392.8,352.6 394,351.9 
	"/>
<polygon class="st0" points="453.8,361.2 453.8,349.5 453.8,344.8 467.9,344.9 467.8,348 472.2,348.2 472.2,354.2 471,354.4 
	471.5,358.5 470.8,359.5 471.2,360.7 472,361.4 "/>
<polygon class="st0" points="501.9,348 503.6,351.4 503.2,352.4 503.6,352.7 503.6,354.5 502.1,357.2 500.3,358 498.7,359.5 
	498.6,360.6 499,361.8 498.1,362.2 497.6,363.2 486.6,363.2 486.5,348.1 "/>
<polygon class="st0" points="484.8,363.1 476.9,363.1 476.9,361.6 472,361.4 471.2,360.7 470.8,359.5 471.5,358.5 471,354.4 
	472.2,354.2 472.2,348.2 485,348.1 486.5,348.1 486.6,363.2 "/>
<polygon class="st0" points="435.3,367.1 435.3,354.3 435.4,349.7 453.8,349.5 453.8,361.2 453.7,368.5 435.3,368.5 "/>
<polygon class="st0" points="435.3,354.3 435.3,367.1 430.3,366.7 428.9,367 426.5,366.5 424.7,367.8 423.4,367.5 422.3,367.9 
	421.3,368.9 419.5,368.2 418.7,368.6 417.5,368.1 415.5,368.9 415.2,369.8 414.4,370.3 413.6,370.2 413.4,371 411.8,371.5 
	411.6,358.7 416.1,358.6 416.1,354.3 430.4,354.2 "/>
<polygon class="st0" points="403.6,381.9 402.5,379 402.8,378.6 403.4,378.9 403.1,377.3 398.3,377.2 398.3,376.2 393.6,372 
	393.5,371 388.5,366.1 388.7,365.4 389.6,363.8 392,361.3 392,358.7 411.6,358.7 411.8,371.5 411.6,382.1 "/>
<polygon class="st0" points="476.7,379.9 467.5,380.1 453.6,379.9 453.7,368.5 453.8,361.2 472,361.4 476.9,361.6 476.9,363.1 "/>
<polygon class="st0" points="476.7,379.9 476.9,363.1 484.8,363.1 485.2,365.1 484.6,367.3 485.1,369.7 484.8,370.5 485.1,371.2 
	484,372.4 484,373.6 484.6,375.1 484.7,378 483.6,379.9 "/>
<polygon class="st0" points="483.6,379.9 484.7,378 484.6,375.1 484,373.6 484,372.4 485.1,371.2 484.8,370.5 485.1,369.7 
	484.6,367.3 485.2,365.1 484.8,363.1 486.6,363.2 497.6,363.2 496.7,364.6 497.6,366.3 497.6,367.1 496.5,366.9 495.9,368.1 
	493.3,368.9 493.2,369.4 494,370 493.6,371.5 492.1,373.6 490,375 489.4,378.5 488.8,378.6 488.4,376.9 488,377 487.8,377.8 
	486.7,378.8 486.7,377.7 486.2,377.5 483.9,380.9 "/>
<polygon class="st0" points="403.6,381.9 398,381.9 398,386.5 391,389 389,387.2 387.5,384.9 385.6,383.7 384.4,381.3 384.2,376.5 
	384.7,374.3 385.5,373 387,371 388.5,366.1 393.5,371 393.6,372 398.3,376.2 398.3,377.2 403.1,377.3 403.4,378.9 402.8,378.6 
	402.5,379 "/>
<polygon class="st0" points="416.4,382.2 411.6,382.1 411.8,371.5 413.4,371 413.6,370.2 414.4,370.3 415.2,369.8 415.5,368.9 
	417.5,368.1 418.7,368.6 419.5,368.2 421.3,368.9 422.3,367.9 423.4,367.5 424.7,367.8 426.5,366.5 428.9,367 430.3,366.7 
	435.3,367.1 435.3,368.5 435.1,382.4 "/>
<polygon class="st0" points="453.5,386.9 435.8,386.9 435,386.9 435.1,382.4 435.3,368.5 453.7,368.5 453.6,379.9 "/>
<polygon class="st0" points="467.4,398.3 467.5,380.1 476.7,379.9 483.6,379.9 483.9,380.9 483.7,381.3 484,383.1 485.9,384.6 
	485.9,385.4 485.2,386.5 484.2,386.7 482.3,388.2 482.6,388.8 484.6,388.6 484.1,389.8 481.6,390.8 481.3,391.3 481.4,391.7 
	482.2,391.9 481.9,393.3 482.2,395 481.3,396 481.4,397.2 480.4,397.4 479.8,396.7 479.6,397.8 481.8,398.1 482,398.7 481.2,399.2 
	478.9,398.7 478.9,399.3 477.1,397.9 476.7,398.2 "/>
<polygon class="st0" points="467.4,398.3 453.5,398.5 453.5,386.9 453.6,379.9 467.5,380.1 "/>
<polygon class="st0" points="391,389 398,386.5 398,381.9 403.6,381.9 411.6,382.1 416.4,382.2 416.2,396.1 413.5,402.2 
	412.7,402.8 412.5,404 411,402.1 405.8,398.7 405.4,398.7 405.2,399.4 403.8,400.3 402.2,400.2 400.5,398.4 401.4,395.6 
	399.2,395.3 397.9,394.1 394.7,392 394,390.9 "/>
<polygon class="st0" points="435.8,386.9 435.5,388 436.2,388.8 435.5,391.2 435.3,394.2 433.9,396.4 416.2,396.1 416.4,382.2 
	435.1,382.4 435,386.9 "/>
<polygon class="st0" points="453.5,398.5 453.5,400.7 434.9,400.8 434.9,396.4 433.9,396.4 435.3,394.2 435.5,391.2 436.2,388.8 
	435.5,388 435.8,386.9 453.5,386.9 "/>
<polygon class="st0" points="435,414.6 422.2,414.5 422.1,415.7 421.5,416.4 419.5,416.3 419.9,414 419.7,412.2 419.9,410.6 
	419.6,409.8 417.1,409.2 413.6,407.2 413.2,405.1 412.5,404 412.7,402.8 413.5,402.2 416.2,396.1 433.9,396.4 434.9,396.4 
	434.9,400.8 "/>
<polygon class="st0" points="477.5,415.7 476.5,415.7 475,414.2 467.3,414.4 467.4,398.3 476.7,398.2 477.1,397.9 478.9,399.3 
	479.9,400.7 481.7,402 481.3,402.8 479.4,402.6 479.5,403.4 481.6,404 480.1,407.7 477.5,409.5 476.4,411.6 476.5,413.3 "/>
<polygon class="st0" points="465.9,414.4 453.3,414.6 453.5,400.7 453.5,398.5 467.4,398.3 467.3,414.4 "/>
<polygon class="st0" points="453.3,414.6 439.4,414.7 435,414.6 434.9,400.8 453.5,400.7 "/>
<polygon class="st0" points="465.6,424.3 465.9,414.4 467.3,414.4 475,414.2 476.5,415.7 477.5,415.7 480.1,419.5 479.4,421.3 
	470.1,423.1 468.1,424.9 "/>
<polygon class="st0" points="462.6,442.7 462.6,437.6 453.3,428.5 453.3,414.6 465.9,414.4 465.6,424.3 463.6,425.3 461.8,430.8 
	462.2,432.8 464.3,435.5 465.5,438.1 464.3,441.2 463.2,442.5 "/>
<polygon class="st0" points="421.8,428.5 423.2,427.7 423.5,424.8 422.4,422.6 420.7,420.5 419.5,416.3 421.5,416.4 422.1,415.7 
	422.2,414.5 435,414.6 439.4,414.7 439.3,428.7 431.1,428.6 "/>
<polygon class="st0" points="444.3,430 443.3,430.3 441.7,429.7 439.3,430.6 439.3,428.7 439.4,414.7 453.3,414.6 453.3,428.5 
	445.2,428.6 444.8,429.6 "/>
<polygon class="st0" points="453.3,428.5 462.6,437.6 462.6,442.7 461.5,442.9 459.8,442.5 457.5,440.6 454.4,439.2 452.3,438.9 
	451.9,438.4 447.1,435.7 444.2,434.9 444.3,430 444.8,429.6 445.2,428.6 "/>
<polygon class="st0" points="420.9,432.9 419.9,431.8 419.9,430.3 420.5,429.1 421.8,428.5 431.1,428.6 432.3,429.9 432.5,431.1 
	431,432.2 430.8,434.2 430.3,434.5 430.2,435.6 430.7,436 430.3,437 430.2,439.7 431.1,440.8 433.9,441.7 434.3,443 434.1,445 
	435.1,446.4 435.9,446.9 433.3,447 432.6,444.8 431.4,444.1 430.3,441.8 429.5,441.5 428.7,441.8 428.4,443.1 430.3,444.9 
	430.4,445.9 429.6,446.4 428.4,445.8 425.4,443.7 425.5,441.1 423.7,439.1 423,437.7 421.8,434.6 421.9,433 "/>
<polygon class="st0" points="434.3,443 433.9,441.7 431.1,440.8 430.2,439.7 430.3,437 430.7,436 430.2,435.6 430.3,434.5 
	430.8,434.2 431,432.2 432.5,431.1 432.3,429.9 431.1,428.6 439.3,428.7 439.3,430.6 441.7,429.7 443.3,430.3 444.3,430 
	444.2,434.9 441.7,434.8 438.7,436.6 436.5,440.4 435.3,441.4 "/>
<polygon class="st0" points="402.9,164.6 402.8,147.3 406.5,147.3 424.7,147.7 424.6,164.4 412.4,164.6 "/>
<polygon class="st0" points="443.7,167.1 434,167.2 433.9,164.4 424.6,164.4 424.7,147.7 426.4,147.6 443.9,148 "/>
<polygon class="st0" points="458.3,167 453.5,167 453.6,148.1 470.7,148 475,148.1 474.6,166.9 473,166.9 "/>
<polygon class="st0" points="443.7,167.1 443.9,148 451.2,148 453.6,148.1 453.5,167 "/>
<polygon class="st0" points="491.6,148.1 489.9,158 493.1,166.9 474.6,166.9 475,148.1 "/>
<polygon class="st0" points="412.5,179.5 412.4,164.6 424.6,164.4 433.9,164.4 434,167.2 443.7,167.1 443.6,181.7 426.2,181.9 
	426.1,181.2 424.6,181.2 423.5,182 423.3,180.9 422.7,180.8 421.5,180.8 421.2,181.1 414.9,181.1 414.8,179.5 "/>
<polygon class="st0" points="412.5,179.5 393.2,179.6 393.7,176.6 393.4,173.8 392.6,172.3 392.7,169.9 392.3,168.9 391.6,168.8 
	390,166.7 386.1,164.6 402.9,164.6 412.4,164.6 "/>
<polygon class="st0" points="472,176.3 471.9,171.9 473,171.8 473,166.9 474.6,166.9 493.1,166.9 496.8,172.4 499.3,184.3 
	502.7,191.2 502.6,205.4 491.7,205.5 491.5,199.9 486.8,200 486.7,195.5 481.7,195.6 481.8,192.8 483.9,192.8 486.3,191.2 
	486.1,175.8 "/>
<polygon class="st0" points="457.8,191.4 457.6,171.9 458.3,171.9 458.3,167 473,166.9 473,171.8 471.9,171.9 472,176.3 472,191.1 
	"/>
<polygon class="st0" points="457.6,196.1 443.8,196.4 443.6,181.7 443.7,167.1 453.5,167 458.3,167 458.3,171.9 457.6,171.9 
	457.8,191.4 457.5,191.6 "/>
<polygon class="st0" points="472,191.1 472,176.3 486.1,175.8 486.3,191.2 483.9,192.8 481.8,192.8 481.8,190.9 "/>
<polygon class="st0" points="392.2,198.9 393.3,197.5 393,196 392,194.4 390.6,193.6 389.8,192.3 389,188 391.5,186.6 393.2,179.6 
	412.5,179.5 414.8,179.5 414.9,181.1 414.8,198.8 405.1,199 "/>
<polygon class="st0" points="414.8,198.8 414.9,181.1 421.2,181.1 421.5,180.8 422.7,180.8 423.3,180.9 423.5,182 424.6,181.2 
	426.1,181.2 426.2,181.9 443.6,181.7 443.8,196.4 434.2,196.5 434.2,198.7 "/>
<g>
	<g>
		<g id="_x30_f8TzS_3_">
			<g>
				<path class="st1" d="M445.4,185.7c0.1-6.4,4.8-11.7,10.9-12.4c6.5-0.7,12.3,3.3,13.7,9.7c0.6,2.8,0.4,5.5-0.9,8
					c-3.1,5.9-6.1,11.9-9.2,17.8c-0.2,0.3-0.4,0.6-0.5,1c-0.4,0.8-0.9,1.2-1.8,1.2c-0.8,0-1.4-0.5-1.7-1.2
					c-1.8-3.6-3.6-7.2-5.3-10.8c-1.3-2.7-2.7-5.4-4-8.1C445.8,189.3,445.4,187.6,445.4,185.7z"/>
			</g>
		</g>
	</g>
	<g>
		<path class="st2" d="M454.3,191h-2.1c-0.1,0-0.2,0.1-0.2,0.2v1.5c0,0.1,0.1,0.2,0.2,0.2h2.1c0.1,0,0.2-0.1,0.2-0.2v-1.5
			C454.4,191,454.3,191,454.3,191z M454.1,192.4h-1.7v-1.1h1.7V192.4z"/>
		<path class="st2" d="M457,191H455c-0.1,0-0.2,0.1-0.2,0.2v1.5c0,0.1,0.1,0.2,0.2,0.2h2.1c0.1,0,0.2-0.1,0.2-0.2v-1.5
			C457.2,191,457.1,191,457,191z M456.8,192.4h-1.7v-1.1h1.7V192.4z"/>
		<path class="st2" d="M459.8,191h-2.1c-0.1,0-0.2,0.1-0.2,0.2v1.5c0,0.1,0.1,0.2,0.2,0.2h2.1c0.1,0,0.2-0.1,0.2-0.2v-1.5
			C460,191,459.9,191,459.8,191z M459.6,192.4h-1.7v-1.1h1.7V192.4z"/>
		<path class="st2" d="M450.8,184.1c0,0,0.1,0.1,0.1,0.1h0.2v9.3c0,0.1,0.1,0.2,0.2,0.2h13.1c0.1,0,0.2-0.1,0.2-0.2v-9.3h0.2
			c0.1,0,0.1,0,0.1-0.1c0,0,0.1-0.1,0.1-0.2l-0.4-3.5v0v-1c0-0.1-0.1-0.2-0.2-0.2h-13.1c-0.1,0-0.2,0.1-0.2,0.2v1c0,0,0,0,0,0
			l-0.4,3.5C450.8,184,450.8,184.1,450.8,184.1z M451.5,180.6h12.8l0.3,3.1h-0.2h-3.8h-9.3h-0.2L451.5,180.6z M460.5,184.2v5.9h-8.9
			v-5.9H460.5z M451.5,190.5h8.9v2.8h-8.9V190.5z M464.3,193.3h-3.4v-9.1h3.4V193.3z M451.5,179.6h12.8v0.6h-12.8V179.6z"/>
	</g>
</g>
<g>
	<g id="_x30_f8TzS_1_">
		<g>
			<path class="st3" d="M427.8,164.4c0.1-6.4,4.8-11.7,10.9-12.4c6.5-0.7,12.3,3.3,13.7,9.7c0.6,2.8,0.4,5.5-0.9,8
				c-3.1,5.9-6.1,11.9-9.2,17.8c-0.2,0.3-0.4,0.6-0.5,1c-0.4,0.8-0.9,1.2-1.8,1.2c-0.8,0-1.4-0.5-1.7-1.2c-1.8-3.6-3.6-7.2-5.3-10.8
				c-1.3-2.7-2.7-5.4-4-8.1C428.1,168,427.8,166.2,427.8,164.4z"/>
		</g>
	</g>
</g>
<g>
	<g id="_x30_f8TzS_4_">
		<g>
			<path class="st1" d="M458.4,173.4c0.1-6.4,4.8-11.7,10.9-12.4c6.5-0.7,12.3,3.3,13.7,9.7c0.6,2.8,0.4,5.5-0.9,8
				c-3.1,5.9-6.1,11.9-9.2,17.8c-0.2,0.3-0.4,0.6-0.5,1c-0.4,0.8-0.9,1.2-1.8,1.2c-0.8,0-1.4-0.5-1.7-1.2c-1.8-3.6-3.6-7.2-5.3-10.8
				c-1.3-2.7-2.7-5.4-4-8.1C458.8,177,458.4,175.2,458.4,173.4z"/>
		</g>
	</g>
	<g>
		<path class="st2" d="M467.7,180.5h-2.1c-0.1,0-0.2,0.1-0.2,0.2v1.5c0,0.1,0.1,0.2,0.2,0.2h2.1c0.1,0,0.2-0.1,0.2-0.2v-1.5
			C467.9,180.6,467.8,180.5,467.7,180.5z M467.5,182h-1.7v-1.1h1.7V182z"/>
		<path class="st2" d="M470.4,180.5h-2.1c-0.1,0-0.2,0.1-0.2,0.2v1.5c0,0.1,0.1,0.2,0.2,0.2h2.1c0.1,0,0.2-0.1,0.2-0.2v-1.5
			C470.6,180.6,470.6,180.5,470.4,180.5z M470.3,182h-1.7v-1.1h1.7V182z"/>
		<path class="st2" d="M473.2,180.5h-2.1c-0.1,0-0.2,0.1-0.2,0.2v1.5c0,0.1,0.1,0.2,0.2,0.2h2.1c0.1,0,0.2-0.1,0.2-0.2v-1.5
			C473.4,180.6,473.3,180.5,473.2,180.5z M473,182h-1.7v-1.1h1.7V182z"/>
		<path class="st2" d="M464.2,173.7c0,0,0.1,0.1,0.1,0.1h0.2v9.3c0,0.1,0.1,0.2,0.2,0.2h13.1c0.1,0,0.2-0.1,0.2-0.2v-9.3h0.2
			c0.1,0,0.1,0,0.1-0.1c0,0,0.1-0.1,0.1-0.2l-0.4-3.5v0v-1c0-0.1-0.1-0.2-0.2-0.2h-13.1c-0.1,0-0.2,0.1-0.2,0.2v1c0,0,0,0,0,0
			l-0.4,3.5C464.2,173.6,464.2,173.6,464.2,173.7z M464.9,170.2h12.8l0.3,3.1h-0.2h-3.8h-9.3h-0.2L464.9,170.2z M473.9,173.7v5.9
			h-8.9v-5.9H473.9z M464.9,180h8.9v2.8h-8.9V180z M477.7,182.8h-3.4v-9.1h3.4V182.8z M464.9,169.2h12.8v0.6h-12.8V169.2z"/>
	</g>
</g>
<g id="_x30_f8TzS_2_">
	<g>
		<path class="st3" d="M454.4,220.4c0.1-6.4,4.8-11.7,10.9-12.4c6.5-0.7,12.3,3.3,13.7,9.7c0.6,2.8,0.4,5.5-0.9,8
			c-3.1,5.9-6.1,11.9-9.2,17.8c-0.2,0.3-0.4,0.6-0.5,1c-0.4,0.8-0.9,1.2-1.8,1.2c-0.8,0-1.4-0.5-1.7-1.2c-1.8-3.6-3.6-7.2-5.3-10.8
			c-1.3-2.7-2.7-5.4-4-8.1C454.8,224,454.4,222.2,454.4,220.4z"/>
	</g>
</g>
<g>
	<g id="_x30_f8TzS_6_">
		<g>
			<path class="st1" d="M485.1,150.7c0.1-6.4,4.8-11.7,10.9-12.4c6.5-0.7,12.3,3.3,13.7,9.7c0.6,2.8,0.4,5.5-0.9,8
				c-3.1,5.9-6.1,11.9-9.2,17.8c-0.2,0.3-0.4,0.6-0.5,1c-0.4,0.8-0.9,1.2-1.8,1.2c-0.8,0-1.4-0.5-1.7-1.2c-1.8-3.6-3.6-7.2-5.3-10.8
				c-1.3-2.7-2.7-5.4-4-8.1C485.5,154.3,485.1,152.6,485.1,150.7z"/>
		</g>
	</g>
</g>
<g>
	<path class="st2" d="M494.5,156.5h-2.1c-0.1,0-0.2,0.1-0.2,0.2v1.5c0,0.1,0.1,0.2,0.2,0.2h2.1c0.1,0,0.2-0.1,0.2-0.2v-1.5
		C494.7,156.6,494.6,156.5,494.5,156.5z M494.3,158h-1.7v-1.1h1.7V158z"/>
	<path class="st2" d="M497.2,156.5h-2.1c-0.1,0-0.2,0.1-0.2,0.2v1.5c0,0.1,0.1,0.2,0.2,0.2h2.1c0.1,0,0.2-0.1,0.2-0.2v-1.5
		C497.4,156.6,497.4,156.5,497.2,156.5z M497.1,158h-1.7v-1.1h1.7V158z"/>
	<path class="st2" d="M500,156.5h-2.1c-0.1,0-0.2,0.1-0.2,0.2v1.5c0,0.1,0.1,0.2,0.2,0.2h2.1c0.1,0,0.2-0.1,0.2-0.2v-1.5
		C500.2,156.6,500.1,156.5,500,156.5z M499.8,158h-1.7v-1.1h1.7V158z"/>
	<path class="st2" d="M491,149.6c0,0,0.1,0.1,0.1,0.1h0.2v9.3c0,0.1,0.1,0.2,0.2,0.2h13.1c0.1,0,0.2-0.1,0.2-0.2v-9.3h0.2
		c0.1,0,0.1,0,0.1-0.1c0,0,0.1-0.1,0.1-0.2l-0.4-3.5v0v-1c0-0.1-0.1-0.2-0.2-0.2h-13.1c-0.1,0-0.2,0.1-0.2,0.2v1c0,0,0,0,0,0
		l-0.4,3.5C491,149.5,491,149.6,491,149.6z M491.7,146.2h12.8l0.3,3.1h-0.2h-3.8h-9.3h-0.2L491.7,146.2z M500.7,149.7v5.9h-8.9v-5.9
		H500.7z M491.7,156h8.9v2.8h-8.9V156z M504.5,158.8h-3.4v-9.1h3.4V158.8z M491.7,145.2h12.8v0.6h-12.8V145.2z"/>
</g>
<g>
	<g id="_x30_f8TzS_5_">
		<g>
			<path class="st1" d="M472.2,168.6c0.1-6.4,4.8-11.7,10.9-12.4c6.5-0.7,12.3,3.3,13.7,9.7c0.6,2.8,0.4,5.5-0.9,8
				c-3.1,5.9-6.1,11.9-9.2,17.8c-0.2,0.3-0.4,0.6-0.5,1c-0.4,0.8-0.9,1.2-1.8,1.2c-0.8,0-1.4-0.5-1.7-1.2c-1.8-3.6-3.6-7.2-5.3-10.8
				c-1.3-2.7-2.7-5.4-4-8.1C472.6,172.1,472.2,170.4,472.2,168.6z"/>
		</g>
	</g>
</g>
<g>
	<path class="st2" d="M440.6,157.2c-0.1-0.1-0.2-0.1-0.3,0l-6.8,6.7c0,0-0.1,0.1-0.1,0.2v7c0,0.1,0,0.1,0.1,0.2c0,0,0.1,0.1,0.2,0.1
		h6.2h0h0h7.4c0.1,0,0.1,0,0.2-0.1s0.1-0.1,0.1-0.2v-7c0-0.1,0-0.1-0.1-0.2L440.6,157.2z M433.8,164.2l6.6-6.4l6.6,6.4v6.7h-7V169
		c0-0.2,0-0.4,0.1-0.6c0.2,0.1,0.3,0.2,0.5,0.2c0.3,0.1,0.7,0.2,1,0.2c0.2,0,0.5,0,0.7-0.1c0.4-0.2,0.7-0.4,0.9-0.8
		c0.4-0.5,0.6-1.2,0.8-1.8c0.2-0.7,0.2-1.4,0.2-2c0-0.1,0-0.1,0-0.2v0v0l0,0l0,0l0,0l0,0l0,0l0,0l0,0l0,0l0,0l0,0l0,0l0,0l0,0l0,0
		l0,0l0,0c-0.2,0-0.4-0.1-0.6-0.1c-0.8,0-1.7,0.2-2.5,0.8c-0.4,0.3-0.7,0.7-1,1.2c-0.1,0.2-0.2,0.3-0.2,0.5l0,0
		c-0.3-0.6-0.7-0.9-1.2-1.1c-0.5-0.2-1-0.3-1.4-0.3c-0.2,0-0.4,0-0.6,0.1l0,0l0,0l0,0l0,0l0,0l0,0l0,0l0,0l0,0l0,0l0,0l0,0l0,0l0,0
		l0,0l0,0c0,0.1,0,0.2,0,0.3c0,0.7,0.1,1.5,0.4,2.2c0.1,0.3,0.3,0.6,0.6,0.8c0.2,0.2,0.6,0.4,0.9,0.4c0.2,0,0.5-0.1,0.8-0.2
		c0.2-0.1,0.5-0.2,0.7-0.4c0,0,0.1,0.1,0.1,0.1c-0.1,0.3-0.2,0.5-0.2,0.8v1.8h-5.8V164.2z M441.8,166.2c-0.1-0.1-0.2-0.1-0.3,0
		c-0.2,0.2-0.3,0.4-0.4,0.5c-0.1,0.2-0.3,0.3-0.5,0.4c-0.2,0.2-0.4,0.4-0.6,0.6c0,0-0.1,0-0.1-0.1c0-0.1,0-0.1,0-0.2
		c0-0.7,0.1-1.2,0.4-1.7c0.3-0.7,0.8-1.1,1.4-1.4c0.6-0.3,1.2-0.4,1.7-0.4c0.1,0,0.3,0,0.4,0v0c0,0.9-0.2,2-0.5,2.9
		c-0.2,0.4-0.4,0.8-0.7,1c-0.1,0.1-0.3,0.2-0.4,0.3c-0.2,0.1-0.3,0.1-0.5,0.1c-0.2,0-0.5-0.1-0.8-0.2c-0.1-0.1-0.3-0.1-0.4-0.2
		c0.1-0.2,0.3-0.3,0.5-0.5c0.2-0.2,0.4-0.3,0.6-0.5c0.2-0.2,0.3-0.4,0.5-0.6C441.9,166.4,441.9,166.3,441.8,166.2z M436.7,165.2
		c0.1,0,0.2,0,0.3,0c0.5,0,1.1,0.1,1.6,0.5c0.2,0.2,0.4,0.4,0.6,0.7c0.1,0.3,0.2,0.7,0.2,1.1c0,0.1,0,0.1,0,0.2
		c-0.2,0.2-0.5,0.3-0.7,0.4c-0.2,0.1-0.4,0.1-0.6,0.1c-0.3,0-0.4-0.1-0.6-0.2c-0.3-0.2-0.5-0.7-0.6-1.2
		C436.8,166.4,436.7,165.8,436.7,165.2C436.7,165.3,436.7,165.2,436.7,165.2z"/>
</g>
<g>
	<path class="st2" d="M466.7,214.6c-0.1-0.1-0.2-0.1-0.3,0l-6.8,6.7c0,0-0.1,0.1-0.1,0.2v7c0,0.1,0,0.1,0.1,0.2c0,0,0.1,0.1,0.2,0.1
		h6.2h0h0h7.4c0.1,0,0.1,0,0.2-0.1c0,0,0.1-0.1,0.1-0.2v-7c0-0.1,0-0.1-0.1-0.2L466.7,214.6z M459.9,221.5l6.6-6.4l6.6,6.4v6.7h-7
		v-1.8c0-0.2,0-0.4,0.1-0.6c0.2,0.1,0.3,0.2,0.5,0.2c0.3,0.1,0.7,0.2,1,0.2c0.2,0,0.5,0,0.7-0.1c0.4-0.2,0.7-0.4,0.9-0.8
		c0.4-0.5,0.6-1.2,0.8-1.8c0.2-0.7,0.2-1.4,0.2-2c0-0.1,0-0.1,0-0.2v0v0l0,0l0,0l0,0l0,0l0,0l0,0l0,0l0,0l0,0l0,0l0,0l0,0l0,0l0,0
		l0,0l0,0c-0.2,0-0.4-0.1-0.6-0.1c-0.8,0-1.7,0.2-2.5,0.8c-0.4,0.3-0.7,0.7-1,1.2c-0.1,0.2-0.2,0.3-0.2,0.5l0,0
		c-0.3-0.6-0.7-0.9-1.2-1.1c-0.5-0.2-1-0.3-1.4-0.3c-0.2,0-0.4,0-0.6,0.1l0,0l0,0l0,0l0,0l0,0l0,0l0,0l0,0l0,0l0,0l0,0l0,0l0,0l0,0
		l0,0l0,0c0,0.1,0,0.2,0,0.3c0,0.7,0.1,1.5,0.4,2.2c0.1,0.3,0.3,0.6,0.6,0.8c0.2,0.2,0.6,0.4,0.9,0.4c0.2,0,0.5-0.1,0.8-0.2
		c0.2-0.1,0.5-0.2,0.7-0.4c0,0,0.1,0.1,0.1,0.1c-0.1,0.3-0.2,0.5-0.2,0.8v1.8h-5.8V221.5z M467.9,223.5c-0.1-0.1-0.2-0.1-0.3,0
		c-0.2,0.2-0.3,0.4-0.4,0.5c-0.1,0.2-0.3,0.3-0.5,0.4c-0.2,0.2-0.4,0.4-0.6,0.6c0,0-0.1,0-0.1-0.1c0-0.1,0-0.1,0-0.2
		c0-0.7,0.1-1.2,0.4-1.7c0.3-0.7,0.8-1.1,1.4-1.4c0.6-0.3,1.2-0.4,1.7-0.4c0.1,0,0.3,0,0.4,0v0c0,0.9-0.2,2-0.5,2.9
		c-0.2,0.4-0.4,0.8-0.7,1c-0.1,0.1-0.3,0.2-0.4,0.3c-0.2,0.1-0.3,0.1-0.5,0.1c-0.2,0-0.5-0.1-0.8-0.2c-0.1-0.1-0.3-0.1-0.4-0.2
		c0.1-0.2,0.3-0.3,0.5-0.5c0.2-0.2,0.4-0.3,0.6-0.5c0.2-0.2,0.3-0.4,0.5-0.6C468,223.7,468,223.6,467.9,223.5z M462.8,222.5
		c0.1,0,0.2,0,0.3,0c0.5,0,1.1,0.1,1.6,0.5c0.2,0.2,0.4,0.4,0.6,0.7c0.1,0.3,0.2,0.7,0.2,1.1c0,0.1,0,0.1,0,0.2
		c-0.2,0.2-0.5,0.3-0.7,0.4c-0.2,0.1-0.4,0.1-0.6,0.1c-0.3,0-0.4-0.1-0.6-0.2c-0.3-0.2-0.5-0.7-0.6-1.2
		C462.9,223.7,462.8,223.1,462.8,222.5C462.8,222.6,462.8,222.5,462.8,222.5z"/>
</g>
<g>
	<path class="st2" d="M481.3,174.4h-2.1c-0.1,0-0.2,0.1-0.2,0.2v1.5c0,0.1,0.1,0.2,0.2,0.2h2.1c0.1,0,0.2-0.1,0.2-0.2v-1.5
		C481.5,174.4,481.4,174.4,481.3,174.4z M481.1,175.8h-1.7v-1.1h1.7V175.8z"/>
	<path class="st2" d="M484.1,174.4H482c-0.1,0-0.2,0.1-0.2,0.2v1.5c0,0.1,0.1,0.2,0.2,0.2h2.1c0.1,0,0.2-0.1,0.2-0.2v-1.5
		C484.2,174.4,484.2,174.4,484.1,174.4z M483.9,175.8h-1.7v-1.1h1.7V175.8z"/>
	<path class="st2" d="M486.8,174.4h-2.1c-0.1,0-0.2,0.1-0.2,0.2v1.5c0,0.1,0.1,0.2,0.2,0.2h2.1c0.1,0,0.2-0.1,0.2-0.2v-1.5
		C487,174.4,486.9,174.4,486.8,174.4z M486.6,175.8h-1.7v-1.1h1.7V175.8z"/>
	<path class="st2" d="M477.9,167.5c0,0,0.1,0.1,0.1,0.1h0.2v9.3c0,0.1,0.1,0.2,0.2,0.2h13.1c0.1,0,0.2-0.1,0.2-0.2v-9.3h0.2
		c0.1,0,0.1,0,0.1-0.1c0,0,0.1-0.1,0.1-0.2l-0.4-3.5v0v-1c0-0.1-0.1-0.2-0.2-0.2h-13.1c-0.1,0-0.2,0.1-0.2,0.2v1c0,0,0,0,0,0
		l-0.4,3.5C477.8,167.4,477.8,167.5,477.9,167.5z M478.5,164h12.8l0.3,3.1h-0.2h-3.8h-9.3h-0.2L478.5,164z M487.5,167.6v5.9h-8.9
		v-5.9H487.5z M478.6,173.9h8.9v2.8h-8.9V173.9z M491.3,176.7h-3.4v-9.1h3.4V176.7z M478.6,163h12.8v0.6h-12.8V163z"/>
</g>
<polygon class="st0" points="1139.3,180.4 1166.5,179.5 1166.3,180.9 1166.8,183.7 1165,188.5 1165.5,190.1 1167.2,191.3 
	1165.4,195.5 1166,198 1165.4,199.1 1165.5,200.6 1165,201.4 1165.4,203.7 1166.4,205.2 1166.9,205.7 1161.5,206.2 1161.2,206.9 
	1161.6,207.6 1160.1,209.1 1158.7,209 1157.4,210.5 1155.1,210.9 1153.2,211.8 1152.1,211.6 1150.9,212 1150.4,211.6 1143.7,212.5 
	1141.6,196.9 1140.3,196.9 "/>
<polygon class="st0" points="1139.3,180.4 1140.3,196.9 1141.6,196.9 1143.7,212.5 1134.7,213.8 1136.4,228.6 1128.9,229.7 
	1118.5,230.9 1117.9,227.6 1118.6,226.3 1114,183 1111.3,182.9 1110.5,180.3 "/>
<polygon class="st0" points="1162.3,247.6 1137.7,250.9 1137.9,247.9 1134.6,246.7 1134.1,245.9 1132.6,246.2 1131.6,246.9 
	1126.8,240.7 1129.8,238 1128.9,229.7 1136.4,228.6 1134.7,213.8 1143.7,212.5 1150.4,211.6 1150.9,212 1152.1,211.6 1153.2,211.8 
	1155.1,210.9 1157.4,210.5 1158.7,209 1160.1,209.1 1161.6,207.6 1161.2,206.9 1161.5,206.2 1166.9,205.7 1168.6,212 1168.3,213.5 
	1167.1,215.7 1168.1,221.7 1165.2,225 1165,226.7 1164,228.7 1163.9,230.3 1162.9,232.7 1162.8,233.8 1164,235.3 1163.6,237 
	1164.1,241.1 1165.3,242.7 1164.9,247.2 "/>
<polygon class="st0" points="1133.7,271.5 1134.4,278 1131.2,278.2 1131.2,279.7 1127.2,280.2 1127,278.8 1118.6,279.3 
	1111.3,276.1 1105.1,273.1 1108.8,265.4 1105.7,232.4 1118.5,230.9 1128.9,229.7 1129.8,238 1126.8,240.7 1131.6,246.9 
	1132.6,246.2 1134.1,245.9 1134.6,246.7 1137.9,247.9 1137.7,250.9 1131.5,251.8 "/>
<polygon class="st0" points="1105.7,232.4 1108.8,265.4 1105.1,273.1 1111.3,276.1 1112.2,281.5 1111.2,282.4 1111.1,283.3 
	1110.4,283.6 1110.3,284.7 1109.1,285.9 1108.9,287.4 1109.3,288.8 1110,289.4 1110.1,292.3 1109.4,299.2 1104.5,297.3 
	1104.3,300.9 1103.5,301.3 1095.9,296.8 1094.4,299.3 1091.3,299.5 1091.3,298.1 1091.2,288.3 1097.1,279.1 1094.6,278.4 
	1094.4,277.9 1093.5,277.9 1093.4,277.5 1093.9,275.2 1095.1,274.7 1095.8,274.8 1096.1,274.5 1095.9,273.8 1096.6,273.8 
	1095.2,258 1093.3,231.1 1097.2,233.4 "/>
<polygon class="st0" points="1156.1,275.1 1154.4,275 1153.7,275.6 1153.5,276.9 1152.7,276.8 1152.3,275.9 1150.9,276.5 
	1150.3,277 1150.5,277.7 1149.9,278.7 1149.3,279.2 1148.2,277.9 1146.7,277.7 1147.3,275.4 1146.1,273.9 1146.1,273 1145.2,271.9 
	1144.8,269.8 1133.7,271.5 1131.5,251.8 1137.7,250.9 1162.3,247.6 1161.3,248.4 1161.4,249.8 1160.5,253.5 1160.5,255.4 
	1158.9,256.5 1156.3,260.6 1155.5,260.8 1155.7,261.4 1155.3,262.5 1154.5,263.2 "/>
<polygon class="st0" points="1147.3,304.2 1144.3,300.4 1143.9,297.2 1141.9,297.6 1141,296.6 1137.8,294.6 1136.4,294.6 
	1136.1,292.7 1134.4,278 1133.7,271.5 1144.8,269.8 1145.2,271.9 1146.1,273 1146.1,273.9 1147.3,275.4 1146.7,277.7 1148.2,277.9 
	1149.3,279.2 1149.9,278.7 1150.5,277.7 1150.3,277 1150.9,276.5 1152.3,275.9 1152.7,276.8 1153.5,276.9 1153.7,275.6 1154.4,275 
	1156.1,275.1 1156,276.5 1156.6,277.4 1156.3,278.5 1156.8,280.1 1156.3,282.8 1157,286 1155.8,292.6 1155,293.7 1154.8,295.2 
	1153.6,296.3 1153,297.4 1153.2,300.5 1153.7,302 1153.1,304.8 1150.7,302.4 1149.5,303.7 1148.5,303.5 1147.7,304.3 "/>
<polygon class="st0" points="1134.4,278 1136.1,292.7 1118.5,292.8 1110,289.4 1109.3,288.8 1108.9,287.4 1109.1,285.9 
	1110.3,284.7 1110.4,283.6 1111.1,283.3 1111.2,282.4 1112.2,281.5 1111.3,276.1 1118.6,279.3 1127,278.8 1127.2,280.2 
	1131.2,279.7 1131.2,278.2 "/>
<polygon class="st0" points="1109.4,299.2 1110.1,292.3 1110,289.4 1118.5,292.8 1136.1,292.7 1136.4,294.6 1136.6,297.5 
	1129.9,302.2 1129.7,303 1128.7,303.8 1125.3,303.8 1122,304.5 1117,301.9 1114,300.9 "/>
<polygon class="st0" points="1166.3,319 1149,321.4 1148.7,320.3 1149.7,316.8 1149.6,313.5 1152.3,308.5 1153.1,304.8 1153.7,302 
	1153.2,300.5 1153,297.4 1153.6,296.3 1154.8,295.2 1161.7,295.1 1163.1,294.3 1165,295.2 1169.3,295.1 1169.1,300.8 1168.5,302.6 
	1169.6,305.7 1170,305.8 "/>
<polygon class="st0" points="1147.3,304.2 1132.9,306.8 1131.8,307.7 1129.7,307.6 1127.9,306.3 1128.5,305.3 1129.5,305.1 
	1130.1,304.2 1130.2,303.2 1129.7,303 1129.9,302.2 1136.6,297.5 1136.4,294.6 1137.8,294.6 1141,296.6 1141.9,297.6 1143.9,297.2 
	1144.3,300.4 "/>
<polygon class="st0" points="1091.3,298.1 1091.3,299.5 1094.4,299.3 1095.9,296.8 1103.5,301.3 1104.3,300.9 1104.5,297.3 
	1109.4,299.2 1114,300.9 1113,305.4 1114.3,310.4 1114.5,312.5 1114,314.2 1111.2,318.2 1109.1,318.9 1106.5,318.4 1102.5,320.9 
	1102.4,320.2 1101.3,320.5 1100.6,321.9 1100.3,321.8 1099.9,322.3 1099.4,322.1 1099,323.3 1096.5,323.6 1094.3,325.5 
	1092.2,326.7 1092.1,325.8 1091.1,326.5 1089.7,326.8 1087.5,328.9 1086.1,329.4 1083.3,329 1084.1,326.9 1083.6,325.2 
	1084.8,323.3 1083.9,320.7 1084,318.9 1084.6,318.3 1085,316.8 1086.4,315.3 1086.9,312.7 1086.9,310.2 1088.3,305.6 1089.6,303.5 
	1090.1,300.8 1089.7,298.8 1090,298.4 "/>
<polygon class="st0" points="1132.9,306.8 1133.8,307.8 1133.6,310.5 1130.6,316.7 1130.9,319.2 1130.1,322 1130,324.4 
	1130.3,326.1 1129.3,326.8 1126.4,327.2 1125.2,326.3 1122.4,327.1 1115.2,323 1111.2,318.2 1114,314.2 1114.5,312.5 1114.3,310.4 
	1113,305.4 1114,300.9 1117,301.9 1122,304.5 1125.3,303.8 1128.7,303.8 1129.7,303 1130.2,303.2 1130.1,304.2 1129.5,305.1 
	1128.5,305.3 1127.9,306.3 1129.7,307.6 1131.8,307.7 "/>
<polygon class="st0" points="1149,321.4 1130,324.4 1130.1,322 1130.9,319.2 1130.6,316.7 1133.6,310.5 1133.8,307.8 1132.9,306.8 
	1147.3,304.2 1147.7,304.3 1148.5,303.5 1149.5,303.7 1150.7,302.4 1153.1,304.8 1152.3,308.5 1149.6,313.5 1149.7,316.8 
	1148.7,320.3 "/>
<polygon class="st0" points="1093.9,354.2 1093,353.6 1089.6,353.5 1088.4,349.3 1086.8,348.5 1085.9,346.8 1084.4,346.5 
	1083.5,345.6 1082.7,343.3 1082.9,335.9 1083.3,329 1086.1,329.4 1087.5,328.9 1089.7,326.8 1091.1,326.5 1092.1,325.8 
	1092.2,326.7 1094.3,325.5 1096.5,323.6 1099,323.3 1099.4,322.1 1099.9,322.3 1100.3,321.8 1100.6,321.9 1101.3,320.5 
	1102.4,320.2 1102.5,320.9 1106.5,318.4 1109.1,318.9 1111.2,318.2 1115.2,323 1122.4,327.1 1123.1,327.6 1118.7,335.7 
	1122.1,337.3 1119.7,338.6 1118.6,338.8 1117.4,340.2 1108.4,345.3 "/>
<polygon class="st0" points="1160.9,343.9 1159.2,343.8 1159,347.4 1150.9,346.1 1144.1,342.1 1142.7,342.2 1143.4,339.3 
	1144.1,337.6 1145.6,336.2 1146.7,333.4 1147.9,332.3 1149,330.4 1148.5,325.2 1149.2,322.2 1149,321.4 1166.3,319 1160.3,342.2 "/>
<polygon class="st0" points="1149,321.4 1149.2,322.2 1148.5,325.2 1149,330.4 1147.9,332.3 1146.7,333.4 1145.6,336.2 
	1144.1,337.6 1143.4,339.3 1140.2,336.8 1139.6,337.9 1138.5,337.5 1137.1,341.2 1128.3,340.3 1122.1,337.3 1118.7,335.7 
	1123.1,327.6 1122.4,327.1 1125.2,326.3 1126.4,327.2 1129.3,326.8 1130.3,326.1 1130,324.4 "/>
<polygon class="st0" points="1125.2,368.4 1124.2,365.8 1116.9,360.2 1121.8,353.4 1108.4,345.3 1117.4,340.2 1118.6,338.8 
	1119.7,338.6 1122.1,337.3 1128.3,340.3 1137.1,341.2 1138.5,337.5 1139.6,337.9 1140.2,336.8 1143.4,339.3 1142.7,342.2 
	1141.7,351.2 1142.5,353.9 1142.2,358.9 1142.5,361.1 1141.9,368.7 1138.1,369 1136.8,367.6 1134.9,367.2 1134.9,368.8 
	1132.4,368.3 1129.9,367.6 1129.8,366.1 1126.3,368.2 "/>
<polygon class="st0" points="1093.3,231.1 1081.9,224.3 1065.7,214.4 1069.3,207.2 1086.6,190.6 1101.1,182.8 1110.5,180.3 
	1111.3,182.9 1114,183 1118.6,226.3 1117.9,227.6 1118.5,230.9 1105.7,232.4 1097.2,233.4 "/>
<polygon class="st0" points="1051.3,254 1049.9,245.5 1051.8,241.2 1054.4,240.1 1054.2,235.6 1051.5,232.6 1047.6,234 1045,230.8 
	1065.7,214.4 1081.9,224.3 1077.8,230.5 1080.2,232.2 1079.6,233.4 1080.2,233.9 1079.6,234.6 1079.5,235.8 1077.7,235.9 
	1077.7,238.4 1075.3,238.4 1069.6,243.1 1066,242.8 1065.6,247.7 1068,248.1 1068.7,253.6 1058.3,252.8 1058.3,254.7 "/>
<polygon class="st0" points="1068.7,253.6 1068,248.1 1065.6,247.7 1066,242.8 1069.6,243.1 1075.3,238.4 1077.7,238.4 
	1077.7,235.9 1079.5,235.8 1079.6,234.6 1080.2,233.9 1079.6,233.4 1080.2,232.2 1077.8,230.5 1081.9,224.3 1093.3,231.1 
	1095.2,258 1078.3,268.5 1069.3,265.9 "/>
<polygon class="st0" points="1060.1,281.5 1057.6,280.2 1056.7,280.4 1056.3,279.3 1051.6,276.8 1050.9,277.1 1051.3,279.1 
	1050.6,280.2 1048.9,278.7 1048.7,279.9 1047.9,280.6 1047,278.8 1040.2,279.3 1040.2,277.6 1035.4,277.7 1034.6,268.9 
	1041.3,264.1 1050.6,261.2 1052.2,256.8 1051.3,254 1058.3,254.7 1058.3,252.8 1068.7,253.6 1069.3,265.9 1067.1,265.4 
	1064.3,273.3 1065.3,273.9 1064.5,283.1 1063,282.9 1061.8,282 "/>
<polygon class="st0" points="1091.3,298.1 1090,298.4 1089.7,298.8 1082.3,299.1 1082,295.2 1078.2,295 1077.8,289.4 1075.8,289.4 
	1075.6,287.9 1074.4,287.4 1073.6,285.5 1071.6,284.1 1071.5,283.1 1071,283.1 1070.8,282.6 1069.9,282.9 1068.8,282.2 1067.5,283 
	1064.5,283.1 1065.3,273.9 1064.3,273.3 1067.1,265.4 1069.3,265.9 1078.3,268.5 1095.2,258 1096.6,273.8 1095.9,273.8 
	1096.1,274.5 1095.8,274.8 1095.1,274.7 1093.9,275.2 1093.4,277.5 1093.5,277.9 1094.4,277.9 1094.6,278.4 1097.1,279.1 
	1091.2,288.3 "/>
<polygon class="st0" points="1030.7,290.4 1030.7,288 1031.5,287.1 1030.7,274 1034.6,268.9 1035.4,277.7 1040.2,277.6 
	1040.2,279.3 1040.5,284.6 1039.7,285.6 1040,291.2 1041,291.3 1041.5,299.9 1045.2,299.9 1048.2,302.7 1048.4,304.1 1049,307 
	1049,312.5 1041.3,312.6 1041.2,312.3 1032.6,312 1032.1,309.8 1030.1,306.9 1029.8,305.2 1029.8,302.9 1030.6,300.5 1029.8,296.9 
	1029.8,292.6 1030,291.3 "/>
<polygon class="st0" points="943.5,290.6 941.8,288.2 936.3,286.8 937.2,283.8 936.3,277 960.4,271.3 960.3,284.7 960.3,286.8 
	959.5,287.1 958.7,286.7 957.9,287 957.3,286.6 955.4,287.9 953.6,286.8 951.7,287.5 949.6,287.2 949.2,287.7 945.8,289.1 
	945.1,290.6 "/>
<polygon class="st0" points="960.3,284.7 960.4,271.3 979.4,271.6 979.4,284.6 974.1,284.6 974.1,284.3 "/>
<polygon class="st0" points="979.4,284.6 979.4,271.6 989.3,273.3 996.2,278.5 1004.1,276.6 1004.6,289.8 999.9,289.9 1000,294.9 
	996,294.8 988.6,295 990.1,294 990.1,292.3 982.8,292.4 982.7,290.7 983.1,290.6 983.1,289.5 980.9,289.5 982.8,284.6 "/>
<polygon class="st0" points="1020.9,291 1014.1,291 1013.9,289.6 1004.6,289.8 1004.1,276.6 1022.8,276.5 1029.9,272.9 1030.7,274 
	1031.5,287.1 1030.7,288 1030.7,290.4 "/>
<polygon class="st0" points="1048.4,304.1 1048.2,302.7 1045.2,299.9 1041.5,299.9 1041,291.3 1040,291.2 1039.7,285.6 
	1040.5,284.6 1040.2,279.3 1047,278.8 1047.9,280.6 1048.7,279.9 1048.9,278.7 1050.6,280.2 1051.3,279.1 1050.9,277.1 
	1051.6,276.8 1056.3,279.3 1056.7,280.4 1057.6,280.2 1060.1,281.5 1060.9,282.8 1060.7,283.7 1061.5,284 1061.2,285.1 
	1060.4,285.8 1060.7,286.4 1063.1,286.8 1063.9,303.1 "/>
<polygon class="st0" points="1088.3,305.6 1082.9,305.5 1064.1,306.8 1063.9,303.1 1063.1,286.8 1060.7,286.4 1060.4,285.8 
	1061.2,285.1 1061.5,284 1060.7,283.7 1060.9,282.8 1060.1,281.5 1061.8,282 1063,282.9 1064.5,283.1 1067.5,283 1068.8,282.2 
	1069.9,282.9 1070.8,282.6 1071,283.1 1071.5,283.1 1071.6,284.1 1073.6,285.5 1074.4,287.4 1075.6,287.9 1075.8,289.4 
	1077.8,289.4 1078.2,295 1082,295.2 1082.3,299.1 1089.7,298.8 1090.1,300.8 1089.6,303.5 "/>
<polygon class="st0" points="960.5,298.8 960.3,286.8 960.3,284.7 974.1,284.3 974.1,284.6 979.4,284.6 982.8,284.6 980.9,289.5 
	983.1,289.5 983.1,290.6 982.7,290.7 982.8,292.4 982.9,294.4 981.9,294.4 981.8,296.7 981,296.7 980.8,299 976.3,298.8 
	976.2,298.5 "/>
<polygon class="st0" points="933.1,315.2 937,308.3 944.5,303.2 941.4,293.2 943.5,290.6 945.1,290.6 945.8,289.1 949.2,287.7 
	949.6,287.2 951.7,287.5 953.6,286.8 955.4,287.9 957.3,286.6 957.9,287 958.7,286.7 959.5,287.1 960.3,286.8 960.5,298.8 
	959.6,298.8 959.7,303.6 960.8,303.6 960.6,317 956.7,318.4 954.8,318.7 951.3,320.3 950.4,319.8 947.9,321.3 947.3,320.9 
	944.8,322 943.4,322.1 941,320.7 940.4,319.5 937.9,316.8 936.5,316.8 934.7,315.5 "/>
<polygon class="st0" points="996,294.8 1000,294.9 999.9,289.9 1004.6,289.8 1013.9,289.6 1014.1,291 1020.9,291 1021,298.9 
	1020.6,299 1020.5,304.6 1006.6,304.6 1004.6,309.2 1004.6,314.7 999.4,314.7 999.8,309.7 995.3,309.7 994.5,304.6 995.7,304.6 
	995.7,299.7 996.9,299.5 997.2,298.5 "/>
<polygon class="st0" points="1031.4,316.2 1023.5,316.4 1023.8,310.5 1021.8,307 1021.5,304.6 1020.5,304.6 1020.6,299 1021,298.9 
	1020.9,291 1030.7,290.4 1030,291.3 1029.8,292.6 1029.8,296.9 1030.6,300.5 1029.8,302.9 1029.8,305.2 1030.1,306.9 1032.1,309.8 
	1032.6,312 1034,314.3 1035.9,316.2 "/>
<polygon class="st0" points="980.8,299 981,296.7 981.8,296.7 981.9,294.4 982.9,294.4 982.8,292.4 990.1,292.3 990.1,294 
	988.6,295 996,294.8 997.2,298.5 996.9,299.5 995.7,299.7 995.7,304.6 994.5,304.6 995.3,309.7 999.8,309.7 999.4,314.7 
	992.9,314.6 992.9,317 990.5,317.1 990.3,320.8 985.5,320.4 985.7,317.9 977.7,317.9 977.3,317.6 977.4,317.1 977,316.8 
	977.3,315.7 977.8,315.2 977.4,314.9 977.5,314.3 978.9,313.9 979,313.5 978.3,313.1 979.7,312.5 980.9,309.6 "/>
<polygon class="st0" points="966.8,317.7 960.7,317.6 960.6,317 960.8,303.6 959.7,303.6 959.6,298.8 960.5,298.8 976.2,298.5 
	976.3,298.8 980.8,299 980.9,309.6 979.7,312.5 978.3,313.1 979,313.5 978.9,313.9 977.5,314.3 977.4,314.9 977.8,315.2 
	977.3,315.7 977,316.8 977.4,317.1 977.3,317.6 "/>
<polygon class="st0" points="1054.5,324.3 1049.4,324.4 1049,312.5 1049,307 1048.4,304.1 1063.9,303.1 1064.1,306.8 1065,323.9 "/>
<polygon class="st0" points="1004.6,314.7 1004.6,309.2 1006.6,304.6 1020.5,304.6 1021.5,304.6 1021.8,307 1023.8,310.5 
	1023.5,316.4 1023.4,318.7 1024,320.9 1021.1,321.6 1021,321.2 1020,321.2 1019.9,320.2 1015.2,320.3 1015.5,319.6 1014.2,319.3 
	1013.7,318.7 1013.8,315 "/>
<polygon class="st0" points="1082.9,335.9 1074.4,335.8 1074.3,333.1 1065.9,332.8 1065,323.9 1064.1,306.8 1082.9,305.5 
	1088.3,305.6 1086.9,310.2 1086.9,312.7 1086.4,315.3 1085,316.8 1084.6,318.3 1084,318.9 1083.9,320.7 1084.8,323.3 1083.6,325.2 
	1084.1,326.9 1083.3,329 "/>
<polygon class="st0" points="1031.4,316.2 1035.9,316.2 1034,314.3 1032.6,312 1041.2,312.3 1041.3,312.6 1049,312.5 1049.4,324.4 
	1047.8,324.5 1047.7,325.8 1049.9,327.2 1049.4,330.3 1048.1,330.4 1048.1,329.8 1045.6,329.9 1045.4,329.3 1042.9,329.3 
	1042.9,332.2 1040.8,332.2 1040.8,331.4 1038,331.3 1034.7,331.2 1032.1,331.1 "/>
<polygon class="st0" points="994.7,346.5 989.3,346.6 990.3,320.8 990.5,317.1 992.9,317 992.9,314.6 999.4,314.7 1004.6,314.7 
	1013.8,315 1013.7,318.7 1014.2,319.3 1015.5,319.6 1015.2,320.3 1015.5,331.4 1020.7,331.4 1020.6,346.3 "/>
<polygon class="st0" points="914.1,346.4 908.1,346.3 908.1,331.9 920.9,323.6 924.5,319.6 933.1,315.2 934.7,315.5 936.5,316.8 
	936.4,346.4 "/>
<polygon class="st0" points="1015.2,320.3 1019.9,320.2 1020,321.2 1021,321.2 1021.1,321.6 1024,320.9 1023.4,318.7 1023.5,316.4 
	1031.4,316.2 1032.1,331.1 1034.7,331.2 1034.7,333 1033.8,333.5 1032.2,333.6 1032.1,332.9 1030.5,332.9 1030.2,330.5 1020.9,331 
	1020.7,331.4 1015.5,331.4 "/>
<polygon class="st0" points="936.4,346.4 936.5,316.8 937.9,316.8 940.4,319.5 941,320.7 943.4,322.1 944.8,322 947.3,320.9 
	947.9,321.3 950.4,319.8 951.3,320.3 954.8,318.7 956.7,318.4 960.6,317 960.7,317.6 966.8,317.7 966.8,346.5 942.1,346.5 "/>
<polygon class="st0" points="966.8,346.5 966.8,317.7 977.3,317.6 977.7,317.9 985.7,317.9 985.5,320.4 990.3,320.8 989.3,346.6 
	970.8,346.5 "/>
<polygon class="st0" points="1084.4,346.5 1080.5,346.6 1055.4,346.5 1055.1,336.4 1055.8,336.4 1056.6,335.5 1056.4,333.9 
	1055.9,333.7 1055.8,332.3 1056.5,332.3 1056.4,331.6 1055.1,331 1055.1,330.4 1055.4,330.4 1055.4,329 1055,329 1054.5,324.3 
	1065,323.9 1065.9,332.8 1074.3,333.1 1074.4,335.8 1082.9,335.9 1082.7,343.3 1083.5,345.6 "/>
<polygon class="st0" points="1036.9,346.3 1037.5,343.5 1037.2,338.2 1038.2,338.1 1038,331.3 1040.8,331.4 1040.8,332.2 
	1042.9,332.2 1042.9,329.3 1045.4,329.3 1045.6,329.9 1048.1,329.8 1048.1,330.4 1049.4,330.3 1049.9,327.2 1047.7,325.8 
	1047.8,324.5 1049.4,324.4 1054.5,324.3 1055,329 1055.4,329 1055.4,330.4 1055.1,330.4 1055.1,331 1056.4,331.6 1056.5,332.3 
	1055.8,332.3 1055.9,333.7 1056.4,333.9 1056.6,335.5 1055.8,336.4 1055.1,336.4 1055.4,346.5 1053.8,346.4 "/>
<polygon class="st0" points="1020.7,331.4 1020.9,331 1030.2,330.5 1030.5,332.9 1032.1,332.9 1032.2,333.6 1033.8,333.5 
	1034.7,333 1034.7,331.2 1038,331.3 1038.2,338.1 1037.2,338.2 1037.5,343.5 1036.9,346.3 1022.2,346.3 1020.6,346.3 "/>
<polygon class="st0" points="1170.3,274.7 1169.3,295.1 1165,295.2 1163.1,294.3 1161.7,295.1 1154.8,295.2 1155,293.7 
	1155.8,292.6 1157,286 1156.3,282.8 1156.8,280.1 1156.3,278.5 1156.6,277.4 1156,276.5 1156.1,275.1 1154.5,263.2 1155.3,262.5 
	1155.7,261.4 1155.5,260.8 1156.3,260.6 1158.9,256.5 1160.5,255.4 1160.5,253.5 1161.4,249.8 1161.3,248.4 1162.3,247.6 
	1164.9,247.2 1165.9,248.7 1166,249.9 1165.5,252.3 1163.4,256.8 1163.6,259.6 1164.8,260.3 1165.8,257.8 1168.2,257.3 
	1168.6,257.5 1169,259 1168.7,260 1169.9,260.9 1170.8,263.5 "/>
<polygon class="st0" points="1159.6,364.5 1159,372.2 1156.7,372 1143,373.9 1140.9,376.7 1140.2,375.8 1140.3,371.8 1141.9,368.7 
	1142.5,361.1 1142.2,358.9 1142.5,353.9 1141.7,351.2 1142.7,342.2 1144.1,342.1 1150.9,346.1 1159,347.4 1159.2,343.8 
	1160.9,343.9 "/>
<polygon class="st0" points="1125.2,368.4 1123.8,369.4 1121,373 1110.1,373.5 1109.6,376.1 1109.7,377.2 1108.2,377.2 
	1105.3,376.3 1104.1,376.4 1103.9,375.5 1102.6,374.3 1101,374.3 1099.3,371.3 1098.9,369.9 1097,367.8 1096.9,367.3 1097.8,366 
	1097.2,361.9 1097.6,361.2 1097.4,358.9 1096,358.4 1096,357.4 1096.6,356.5 1095.1,355.3 1094.8,354.6 1093.9,354.2 1108.4,345.3 
	1121.8,353.4 1116.9,360.2 1124.2,365.8 "/>
<polygon class="st0" points="1111.9,381.5 1111.7,380.1 1110.3,378.7 1110.3,377.6 1109.7,377.2 1109.6,376.1 1110.1,373.5 
	1121,373 1123.8,369.4 1125.2,368.4 1126.3,368.2 1129.8,366.1 1129.9,367.6 1132.4,368.3 1134.9,368.8 1134.9,367.2 1136.8,367.6 
	1138.1,369 1141.9,368.7 1140.3,371.8 1140.2,375.8 1140.9,376.7 1141.9,379 1140.9,382.8 1130.4,392.9 1125.2,389.7 "/>
<polygon class="st0" points="1158.5,380.7 1140.9,382.8 1141.9,379 1140.9,376.7 1143,373.9 1156.7,372 1159,372.2 "/>
<polygon class="st0" points="1144.3,400.3 1144.5,396.9 1144.1,392.6 1143.1,389.8 1141.4,387.3 1141.3,386.3 1141.9,384.6 
	1140.9,382.8 1158.5,380.7 1158.2,384.5 1161.1,388.9 1151.2,394.8 1154.1,399.5 1154.1,400.3 1149,406.2 1147.2,405.9 
	1146.7,405.1 1143.8,404.1 1144.3,402.3 "/>
<polygon class="st0" points="1140.9,382.8 1141.9,384.6 1141.3,386.3 1141.4,387.3 1143.1,389.8 1144.1,392.6 1144.5,396.9 
	1144.3,400.3 1131.6,393.6 1130.4,392.9 "/>
<polygon class="st0" points="1143.4,410.7 1143.2,409.7 1143.9,408.5 1144.1,406.7 1143.3,406.3 1143.8,404.1 1146.7,405.1 
	1147.2,405.9 1149,406.2 1148.3,409.1 "/>
<polygon class="st0" points="1161.1,406.6 1162.1,407.8 1163.4,418.2 1150.1,421.8 1150.5,421.5 1150.3,420.6 1149.7,420.5 
	1149.6,419.5 1150.6,419.2 1150.7,418.6 1151.1,418.5 1151.2,414.7 1152,414.4 1152.2,413.9 1152,413.2 1150.4,412.1 1150,411.5 
	1150.2,408.5 1156.3,405.4 "/>
<polygon class="st0" points="1141.1,411 1143.3,406.3 1144.1,406.7 1143.9,408.5 1143.2,409.7 1143.4,410.7 1139.9,416 
	1139.9,414.2 "/>
<polygon class="st0" points="1141.9,414.1 1144.7,416.8 1145.6,416.8 1146.3,418.7 1143.5,419.8 1145,422 1140,422.5 1139,419.4 "/>
<polygon class="st0" points="1130.6,426.5 1130.6,424.8 1133.4,420.2 1137.2,418.9 1137.7,421.4 1135.2,424.4 1132.3,426.2 "/>
<path class="st0" d="M1223.7,395.7l-6.2,4.5l-5.1-1.9l-3.6,0.6l-7.4,5.5l-5.2,0.8l2.2-3.2l5.4-3.2l2.5-4.5l2.9-1.7l-1.4-0.4l-12.7,9
	l-15.7,0.7l-4.8,0.9l-3,2.7l-8.7-1.1l-1.9,2.3l0.9,1.2l1.3,10.5l36.3-8.2l24.3-11.5l2-2.3L1223.7,395.7z M1185.4,414.2l-7,3.3
	l-7.6,2.2h-2l-0.1,0.4l1.8,0.1l8.8-2.4l3-1.5l7.7-3.1l0.3-0.5l-1,0.2L1185.4,414.2z M1208.8,395.8l-0.4-0.1l-0.7-0.6l-0.2-0.6
	l-0.5,0.1l-0.1,0.7l-0.8,0.6l-0.4,0.6l0,0.7l0.5,0.5l0.7-0.1l0.9,0l0.8,0.4l0.5,0.4l0.4,0.1l0-0.4l-0.3-0.5l0.2-0.6l-0.2-0.6
	l0.1-0.5L1208.8,395.8z M1215.7,395.2l0.6,0.1l0.2,0.5l0.1,0.7l0,0.7l0.3-0.4l0.3-0.4l0.2-0.4l-0.1-0.5l0-0.4l0.2-0.2l0-0.3
	l-0.5-0.1l-0.7-0.3l-0.9-0.7l0.1,0.6l-0.3,0.4l-0.3,0.3l0.2,0.2L1215.7,395.2z M1220.7,386.8l0.4-0.5l0.7-0.7l0.9-0.2l0.7-0.3
	l0.3-0.5l-0.8,0l-0.6,0.3l-0.9,0.1l-0.7,0.1l-0.2,0.5l-0.2,0.4l-0.3-0.5l-0.4,0l-0.2,0.5l-0.4,0.3l-0.1,0.6l0.6-0.2L1220.7,386.8z"
	/>
<path class="st0" d="M1152,413.2l-1.7-1.1l-0.3-0.6l-5.8-0.4l-2.3,3.1l2.7,2.8l1,0l0.7,1.9l3.3,0.8l1-0.4l0.1-0.6l0.4-0.1l0.1-3.8
	l0.9-0.3l0.1-0.5L1152,413.2z M1149.7,420.5l-6.7,3.2l7.1-2l0.4-0.3l-0.2-0.8L1149.7,420.5z"/>
<g>
	<g id="_x30_f8TzS_7_">
		<g>
			<path class="st1" d="M1143,381.4c0.1-6.4,4.8-11.7,10.9-12.4c6.5-0.7,12.3,3.3,13.7,9.7c0.6,2.8,0.4,5.5-0.9,8
				c-3.1,5.9-6.1,11.9-9.2,17.8c-0.2,0.3-0.4,0.6-0.5,1c-0.4,0.8-0.9,1.2-1.8,1.2c-0.8,0-1.4-0.5-1.7-1.2c-1.8-3.6-3.6-7.2-5.3-10.8
				c-1.3-2.7-2.7-5.4-4-8.1C1143.3,385,1143,383.2,1143,381.4z"/>
		</g>
	</g>
</g>
<g>
	<path class="st2" d="M1152.4,387.2h-2.1c-0.1,0-0.2,0.1-0.2,0.2v1.5c0,0.1,0.1,0.2,0.2,0.2h2.1c0.1,0,0.2-0.1,0.2-0.2v-1.5
		C1152.6,387.2,1152.5,387.2,1152.4,387.2z M1152.2,388.6h-1.7v-1.1h1.7V388.6z"/>
	<path class="st2" d="M1155.1,387.2h-2.1c-0.1,0-0.2,0.1-0.2,0.2v1.5c0,0.1,0.1,0.2,0.2,0.2h2.1c0.1,0,0.2-0.1,0.2-0.2v-1.5
		C1155.3,387.2,1155.2,387.2,1155.1,387.2z M1154.9,388.6h-1.7v-1.1h1.7V388.6z"/>
	<path class="st2" d="M1157.9,387.2h-2.1c-0.1,0-0.2,0.1-0.2,0.2v1.5c0,0.1,0.1,0.2,0.2,0.2h2.1c0.1,0,0.2-0.1,0.2-0.2v-1.5
		C1158.1,387.2,1158,387.2,1157.9,387.2z M1157.7,388.6h-1.7v-1.1h1.7V388.6z"/>
	<path class="st2" d="M1148.9,380.3c0,0,0.1,0.1,0.1,0.1h0.2v9.3c0,0.1,0.1,0.2,0.2,0.2h13.1c0.1,0,0.2-0.1,0.2-0.2v-9.3h0.2
		c0.1,0,0.1,0,0.1-0.1c0,0,0.1-0.1,0.1-0.2l-0.4-3.5v0v-1c0-0.1-0.1-0.2-0.2-0.2h-13.1c-0.1,0-0.2,0.1-0.2,0.2v1c0,0,0,0,0,0
		l-0.4,3.5C1148.9,380.2,1148.9,380.2,1148.9,380.3z M1149.6,376.8h12.8l0.3,3.1h-0.2h-3.8h-9.3h-0.2L1149.6,376.8z M1158.6,380.4
		v5.9h-8.9v-5.9H1158.6z M1149.6,386.6h8.9v2.8h-8.9V386.6z M1162.4,389.5h-3.4v-9.1h3.4V389.5z M1149.6,375.8h12.8v0.6h-12.8V375.8
		z"/>
</g>
<g>
	<g id="_x30_f8TzS_8_">
		<g>
			<path class="st1" d="M1051,259.7c0.1-6.4,4.8-11.7,10.9-12.4c6.5-0.7,12.3,3.3,13.7,9.7c0.6,2.8,0.4,5.5-0.9,8
				c-3.1,5.9-6.1,11.9-9.2,17.8c-0.2,0.3-0.4,0.6-0.5,1c-0.4,0.8-0.9,1.2-1.8,1.2c-0.8,0-1.4-0.5-1.7-1.2c-1.8-3.6-3.6-7.2-5.3-10.8
				c-1.3-2.7-2.7-5.4-4-8.1C1051.4,263.3,1051,261.5,1051,259.7z"/>
		</g>
	</g>
</g>
<g>
	<path class="st2" d="M1060.4,265.5h-2.1c-0.1,0-0.2,0.1-0.2,0.2v1.5c0,0.1,0.1,0.2,0.2,0.2h2.1c0.1,0,0.2-0.1,0.2-0.2v-1.5
		C1060.6,265.5,1060.5,265.5,1060.4,265.5z M1060.2,266.9h-1.7v-1.1h1.7V266.9z"/>
	<path class="st2" d="M1063.2,265.5h-2.1c-0.1,0-0.2,0.1-0.2,0.2v1.5c0,0.1,0.1,0.2,0.2,0.2h2.1c0.1,0,0.2-0.1,0.2-0.2v-1.5
		C1063.4,265.5,1063.3,265.5,1063.2,265.5z M1063,266.9h-1.7v-1.1h1.7V266.9z"/>
	<path class="st2" d="M1065.9,265.5h-2.1c-0.1,0-0.2,0.1-0.2,0.2v1.5c0,0.1,0.1,0.2,0.2,0.2h2.1c0.1,0,0.2-0.1,0.2-0.2v-1.5
		C1066.1,265.5,1066,265.5,1065.9,265.5z M1065.7,266.9h-1.7v-1.1h1.7V266.9z"/>
	<path class="st2" d="M1057,258.6c0,0,0.1,0.1,0.1,0.1h0.2v9.3c0,0.1,0.1,0.2,0.2,0.2h13.1c0.1,0,0.2-0.1,0.2-0.2v-9.3h0.2
		c0.1,0,0.1,0,0.1-0.1c0,0,0.1-0.1,0.1-0.2l-0.4-3.5v0v-1c0-0.1-0.1-0.2-0.2-0.2h-13.1c-0.1,0-0.2,0.1-0.2,0.2v1c0,0,0,0,0,0
		l-0.4,3.5C1056.9,258.5,1056.9,258.6,1057,258.6z M1057.6,255.1h12.8l0.3,3.1h-0.2h-3.8h-9.3h-0.2L1057.6,255.1z M1066.6,258.7v5.9
		h-8.9v-5.9H1066.6z M1057.7,264.9h8.9v2.8h-8.9V264.9z M1070.4,267.8h-3.4v-9.1h3.4V267.8z M1057.7,254.1h12.8v0.6h-12.8V254.1z"/>
</g>
<g>
	<g id="_x30_f8TzS_9_">
		<g>
			<path class="st1" d="M935.8,275.8c0.1-6.4,4.8-11.7,10.9-12.4c6.5-0.7,12.3,3.3,13.7,9.7c0.6,2.8,0.4,5.5-0.9,8
				c-3.1,5.9-6.1,11.9-9.2,17.8c-0.2,0.3-0.4,0.6-0.5,1c-0.4,0.8-0.9,1.2-1.8,1.2c-0.8,0-1.4-0.5-1.7-1.2c-1.8-3.6-3.6-7.2-5.3-10.8
				c-1.3-2.7-2.7-5.4-4-8.1C936.2,279.4,935.8,277.7,935.8,275.8z"/>
		</g>
	</g>
</g>
<g>
	<path class="st2" d="M945.2,281.6h-2.1c-0.1,0-0.2,0.1-0.2,0.2v1.5c0,0.1,0.1,0.2,0.2,0.2h2.1c0.1,0,0.2-0.1,0.2-0.2v-1.5
		C945.4,281.7,945.3,281.6,945.2,281.6z M945,283h-1.7V282h1.7V283z"/>
	<path class="st2" d="M948,281.6h-2.1c-0.1,0-0.2,0.1-0.2,0.2v1.5c0,0.1,0.1,0.2,0.2,0.2h2.1c0.1,0,0.2-0.1,0.2-0.2v-1.5
		C948.1,281.7,948.1,281.6,948,281.6z M947.8,283h-1.7V282h1.7V283z"/>
	<path class="st2" d="M950.7,281.6h-2.1c-0.1,0-0.2,0.1-0.2,0.2v1.5c0,0.1,0.1,0.2,0.2,0.2h2.1c0.1,0,0.2-0.1,0.2-0.2v-1.5
		C950.9,281.7,950.8,281.6,950.7,281.6z M950.5,283h-1.7V282h1.7V283z"/>
	<path class="st2" d="M941.8,274.7c0,0,0.1,0.1,0.1,0.1h0.2v9.3c0,0.1,0.1,0.2,0.2,0.2h13.1c0.1,0,0.2-0.1,0.2-0.2v-9.3h0.2
		c0.1,0,0.1,0,0.1-0.1c0,0,0.1-0.1,0.1-0.2l-0.4-3.5v0v-1c0-0.1-0.1-0.2-0.2-0.2h-13.1c-0.1,0-0.2,0.1-0.2,0.2v1c0,0,0,0,0,0
		l-0.4,3.5C941.7,274.6,941.7,274.7,941.8,274.7z M942.4,271.3h12.8l0.3,3.1h-0.2h-3.8h-9.3h-0.2L942.4,271.3z M951.4,274.8v5.9
		h-8.9v-5.9H951.4z M942.5,281.1h8.9v2.8h-8.9V281.1z M955.2,283.9h-3.4v-9.1h3.4V283.9z M942.5,270.3h12.8v0.6h-12.8V270.3z"/>
</g>
<g>
	<g id="_x30_f8TzS_10_">
		<g>
			<path class="st1" d="M1149.2,287.4c0.1-6.4,4.8-11.7,10.9-12.4c6.5-0.7,12.3,3.3,13.7,9.7c0.6,2.8,0.4,5.5-0.9,8
				c-3.1,5.9-6.1,11.9-9.2,17.8c-0.2,0.3-0.4,0.6-0.5,1c-0.4,0.8-0.9,1.2-1.8,1.2c-0.8,0-1.4-0.5-1.7-1.2c-1.8-3.6-3.6-7.2-5.3-10.8
				c-1.3-2.7-2.7-5.4-4-8.1C1149.5,290.9,1149.2,289.2,1149.2,287.4z"/>
		</g>
	</g>
</g>
<g>
	<path class="st2" d="M1158.5,293.1h-2.1c-0.1,0-0.2,0.1-0.2,0.2v1.5c0,0.1,0.1,0.2,0.2,0.2h2.1c0.1,0,0.2-0.1,0.2-0.2v-1.5
		C1158.7,293.2,1158.6,293.1,1158.5,293.1z M1158.4,294.6h-1.7v-1.1h1.7V294.6z"/>
	<path class="st2" d="M1161.3,293.1h-2.1c-0.1,0-0.2,0.1-0.2,0.2v1.5c0,0.1,0.1,0.2,0.2,0.2h2.1c0.1,0,0.2-0.1,0.2-0.2v-1.5
		C1161.5,293.2,1161.4,293.1,1161.3,293.1z M1161.1,294.6h-1.7v-1.1h1.7V294.6z"/>
	<path class="st2" d="M1164.1,293.1h-2.1c-0.1,0-0.2,0.1-0.2,0.2v1.5c0,0.1,0.1,0.2,0.2,0.2h2.1c0.1,0,0.2-0.1,0.2-0.2v-1.5
		C1164.3,293.2,1164.2,293.1,1164.1,293.1z M1163.9,294.6h-1.7v-1.1h1.7V294.6z"/>
	<path class="st2" d="M1155.1,286.3c0,0,0.1,0.1,0.1,0.1h0.2v9.3c0,0.1,0.1,0.2,0.2,0.2h13.1c0.1,0,0.2-0.1,0.2-0.2v-9.3h0.2
		c0.1,0,0.1,0,0.1-0.1c0,0,0.1-0.1,0.1-0.2l-0.4-3.5v0v-1c0-0.1-0.1-0.2-0.2-0.2h-13.1c-0.1,0-0.2,0.1-0.2,0.2v1c0,0,0,0,0,0
		l-0.4,3.5C1155.1,286.2,1155.1,286.2,1155.1,286.3z M1155.8,282.8h12.8l0.3,3.1h-0.2h-3.8h-9.3h-0.2L1155.8,282.8z M1164.8,286.3
		v5.9h-8.9v-5.9H1164.8z M1155.8,292.6h8.9v2.8h-8.9V292.6z M1168.6,295.4h-3.4v-9.1h3.4V295.4z M1155.8,281.8h12.8v0.6h-12.8V281.8
		z"/>
</g>
<g id="_x30_f8TzS_11_">
	<g>
		<path class="st3" d="M1107.5,341c0.1-6.4,4.8-11.7,10.9-12.4c6.5-0.7,12.3,3.3,13.7,9.7c0.6,2.8,0.4,5.5-0.9,8
			c-3.1,5.9-6.1,11.9-9.2,17.8c-0.2,0.3-0.4,0.6-0.5,1c-0.4,0.8-0.9,1.2-1.8,1.2c-0.8,0-1.4-0.5-1.7-1.2c-1.8-3.6-3.6-7.2-5.3-10.8
			c-1.3-2.7-2.7-5.4-4-8.1C1107.8,344.6,1107.5,342.8,1107.5,341z"/>
	</g>
</g>
<g>
	<path class="st2" d="M1119.7,335.2c-0.1-0.1-0.2-0.1-0.3,0l-6.8,6.7c0,0-0.1,0.1-0.1,0.2v7c0,0.1,0,0.1,0.1,0.2
		c0,0,0.1,0.1,0.2,0.1h6.2h0h0h7.4c0.1,0,0.1,0,0.2-0.1c0,0,0.1-0.1,0.1-0.2v-7c0-0.1,0-0.1-0.1-0.2L1119.7,335.2z M1113,342.1
		l6.6-6.4l6.6,6.4v6.7h-7v-1.8c0-0.2,0-0.4,0.1-0.6c0.2,0.1,0.3,0.2,0.5,0.2c0.3,0.1,0.7,0.2,1,0.2c0.2,0,0.5,0,0.7-0.1
		c0.4-0.2,0.7-0.4,0.9-0.8c0.4-0.5,0.6-1.2,0.8-1.8c0.2-0.7,0.2-1.4,0.2-2c0-0.1,0-0.1,0-0.2v0v0l0,0l0,0l0,0l0,0l0,0l0,0l0,0l0,0
		l0,0l0,0l0,0l0,0l0,0l0,0l0,0l0,0c-0.2,0-0.4-0.1-0.6-0.1c-0.8,0-1.7,0.2-2.5,0.8c-0.4,0.3-0.7,0.7-1,1.2c-0.1,0.2-0.2,0.3-0.2,0.5
		l0,0c-0.3-0.6-0.7-0.9-1.2-1.1c-0.5-0.2-1-0.3-1.4-0.3c-0.2,0-0.4,0-0.6,0.1l0,0l0,0l0,0l0,0l0,0l0,0l0,0l0,0l0,0l0,0l0,0l0,0l0,0
		l0,0l0,0l0,0c0,0.1,0,0.2,0,0.3c0,0.7,0.1,1.5,0.4,2.2c0.1,0.3,0.3,0.6,0.6,0.8c0.2,0.2,0.6,0.4,0.9,0.4c0.2,0,0.5-0.1,0.8-0.2
		c0.2-0.1,0.5-0.2,0.7-0.4c0,0,0.1,0.1,0.1,0.1c-0.1,0.3-0.2,0.5-0.2,0.8v1.8h-5.8V342.1z M1121,344.1c-0.1-0.1-0.2-0.1-0.3,0
		c-0.2,0.2-0.3,0.4-0.4,0.5c-0.1,0.2-0.3,0.3-0.5,0.4c-0.2,0.2-0.4,0.4-0.6,0.6c0,0-0.1,0-0.1-0.1c0-0.1,0-0.1,0-0.2
		c0-0.7,0.1-1.2,0.4-1.7c0.3-0.7,0.8-1.1,1.4-1.4c0.6-0.3,1.2-0.4,1.7-0.4c0.1,0,0.3,0,0.4,0v0c0,0.9-0.2,2-0.5,2.9
		c-0.2,0.4-0.4,0.8-0.7,1c-0.1,0.1-0.3,0.2-0.4,0.3c-0.2,0.1-0.3,0.1-0.5,0.1c-0.2,0-0.5-0.1-0.8-0.2c-0.1-0.1-0.3-0.1-0.4-0.2
		c0.1-0.2,0.3-0.3,0.5-0.5c0.2-0.2,0.4-0.3,0.6-0.5c0.2-0.2,0.3-0.4,0.5-0.6C1121.1,344.4,1121.1,344.2,1121,344.1z M1115.9,343.1
		c0.1,0,0.2,0,0.3,0c0.5,0,1.1,0.1,1.6,0.5c0.2,0.2,0.4,0.4,0.6,0.7c0.1,0.3,0.2,0.7,0.2,1.1c0,0.1,0,0.1,0,0.2
		c-0.2,0.2-0.5,0.3-0.7,0.4c-0.2,0.1-0.4,0.1-0.6,0.1c-0.3,0-0.4-0.1-0.6-0.2c-0.3-0.2-0.5-0.7-0.6-1.2
		C1115.9,344.3,1115.9,343.7,1115.9,343.1C1115.9,343.2,1115.9,343.2,1115.9,343.1z"/>
</g>
</svg>
